2023-02-26 17:25:52,887 INFO    MainThread:168352 [internal.py:wandb_internal():90] W&B internal server running at pid: 168352, started at: 2023-02-26 17:25:52.886244
2023-02-26 17:25:52,889 INFO    WriterThread:168352 [datastore.py:open_for_write():75] open: /projects/akhot2/group-01-phys371-sp2023/yolov5_model/wandb/run-20230226_172550-2fvf94yn/run-2fvf94yn.wandb
2023-02-26 17:25:52,891 DEBUG   SenderThread:168352 [sender.py:send():232] send: header
2023-02-26 17:25:52,891 DEBUG   SenderThread:168352 [sender.py:send():232] send: run
2023-02-26 17:25:52,900 INFO    SenderThread:168352 [sender.py:_maybe_setup_resume():489] checking resume status for None/YOLOv5/2fvf94yn
2023-02-26 17:25:53,152 DEBUG   HandlerThread:168352 [handler.py:handle_request():141] handle_request: check_version
2023-02-26 17:25:53,158 INFO    SenderThread:168352 [dir_watcher.py:__init__():166] watching files in: /projects/akhot2/group-01-phys371-sp2023/yolov5_model/wandb/run-20230226_172550-2fvf94yn/files
2023-02-26 17:25:53,158 INFO    SenderThread:168352 [sender.py:_start_run_threads():811] run started: 2fvf94yn with start time 1677453950
2023-02-26 17:25:53,159 DEBUG   SenderThread:168352 [sender.py:send():232] send: summary
2023-02-26 17:25:53,160 INFO    SenderThread:168352 [sender.py:_save_file():946] saving file wandb-summary.json with policy end
2023-02-26 17:25:53,160 DEBUG   SenderThread:168352 [sender.py:send_request():246] send_request: check_version
2023-02-26 17:25:53,218 DEBUG   HandlerThread:168352 [handler.py:handle_request():141] handle_request: run_start
2023-02-26 17:25:57,073 INFO    Thread-7  :168352 [dir_watcher.py:_on_file_created():213] file/dir created: /projects/akhot2/group-01-phys371-sp2023/yolov5_model/wandb/run-20230226_172550-2fvf94yn/files/wandb-summary.json
2023-02-26 17:25:59,071 INFO    Thread-7  :168352 [dir_watcher.py:_on_file_created():213] file/dir created: /projects/akhot2/group-01-phys371-sp2023/yolov5_model/wandb/run-20230226_172550-2fvf94yn/files/output.log
2023-02-26 17:26:01,072 INFO    Thread-7  :168352 [dir_watcher.py:_on_file_modified():226] file/dir modified: /projects/akhot2/group-01-phys371-sp2023/yolov5_model/wandb/run-20230226_172550-2fvf94yn/files/output.log
2023-02-26 17:26:01,969 DEBUG   HandlerThread:168352 [meta.py:__init__():35] meta init
2023-02-26 17:26:01,969 DEBUG   HandlerThread:168352 [meta.py:__init__():49] meta init done
2023-02-26 17:26:01,969 DEBUG   HandlerThread:168352 [meta.py:probe():209] probe
2023-02-26 17:26:01,978 DEBUG   HandlerThread:168352 [meta.py:_setup_git():199] setup git
2023-02-26 17:26:02,017 DEBUG   HandlerThread:168352 [meta.py:_setup_git():206] setup git done
2023-02-26 17:26:02,017 DEBUG   HandlerThread:168352 [meta.py:_save_pip():53] save pip
2023-02-26 17:26:02,019 DEBUG   HandlerThread:168352 [meta.py:_save_pip():67] save pip done
2023-02-26 17:26:02,019 DEBUG   HandlerThread:168352 [meta.py:_save_conda():74] save conda
2023-02-26 17:26:02,074 INFO    Thread-7  :168352 [dir_watcher.py:_on_file_created():213] file/dir created: /projects/akhot2/group-01-phys371-sp2023/yolov5_model/wandb/run-20230226_172550-2fvf94yn/files/conda-environment.yaml
2023-02-26 17:26:02,074 INFO    Thread-7  :168352 [dir_watcher.py:_on_file_created():213] file/dir created: /projects/akhot2/group-01-phys371-sp2023/yolov5_model/wandb/run-20230226_172550-2fvf94yn/files/requirements.txt
2023-02-26 17:26:07,594 DEBUG   HandlerThread:168352 [meta.py:_save_conda():84] save conda done
2023-02-26 17:26:07,596 DEBUG   HandlerThread:168352 [meta.py:probe():247] probe done
2023-02-26 17:26:07,629 DEBUG   HandlerThread:168352 [handler.py:handle_request():141] handle_request: stop_status
2023-02-26 17:26:07,632 DEBUG   SenderThread:168352 [sender.py:send_request():246] send_request: stop_status
2023-02-26 17:26:07,723 DEBUG   SenderThread:168352 [sender.py:send():232] send: telemetry
2023-02-26 17:26:07,723 DEBUG   SenderThread:168352 [sender.py:send():232] send: files
2023-02-26 17:26:07,725 INFO    SenderThread:168352 [sender.py:_save_file():946] saving file wandb-metadata.json with policy now
2023-02-26 17:26:08,093 INFO    Thread-7  :168352 [dir_watcher.py:_on_file_modified():226] file/dir modified: /projects/akhot2/group-01-phys371-sp2023/yolov5_model/wandb/run-20230226_172550-2fvf94yn/files/conda-environment.yaml
2023-02-26 17:26:08,093 INFO    Thread-7  :168352 [dir_watcher.py:_on_file_created():213] file/dir created: /projects/akhot2/group-01-phys371-sp2023/yolov5_model/wandb/run-20230226_172550-2fvf94yn/files/wandb-metadata.json
2023-02-26 17:26:08,104 INFO    Thread-11 :168352 [upload_job.py:push():137] Uploaded file /tmp/tmpjhsv3pxmwandb/3jyml7cu-wandb-metadata.json
2023-02-26 17:26:09,094 INFO    Thread-7  :168352 [dir_watcher.py:_on_file_modified():226] file/dir modified: /projects/akhot2/group-01-phys371-sp2023/yolov5_model/wandb/run-20230226_172550-2fvf94yn/files/output.log
2023-02-26 17:26:13,097 INFO    Thread-7  :168352 [dir_watcher.py:_on_file_modified():226] file/dir modified: /projects/akhot2/group-01-phys371-sp2023/yolov5_model/wandb/run-20230226_172550-2fvf94yn/files/output.log
2023-02-26 17:26:15,118 INFO    Thread-7  :168352 [dir_watcher.py:_on_file_modified():226] file/dir modified: /projects/akhot2/group-01-phys371-sp2023/yolov5_model/wandb/run-20230226_172550-2fvf94yn/files/output.log
2023-02-26 17:26:17,120 INFO    Thread-7  :168352 [dir_watcher.py:_on_file_modified():226] file/dir modified: /projects/akhot2/group-01-phys371-sp2023/yolov5_model/wandb/run-20230226_172550-2fvf94yn/files/output.log
2023-02-26 17:26:18,250 DEBUG   HandlerThread:168352 [handler.py:handle_request():141] handle_request: stop_status
2023-02-26 17:26:18,250 DEBUG   SenderThread:168352 [sender.py:send_request():246] send_request: stop_status
2023-02-26 17:26:19,123 INFO    Thread-7  :168352 [dir_watcher.py:_on_file_modified():226] file/dir modified: /projects/akhot2/group-01-phys371-sp2023/yolov5_model/wandb/run-20230226_172550-2fvf94yn/files/output.log
2023-02-26 17:26:21,129 INFO    Thread-7  :168352 [dir_watcher.py:_on_file_modified():226] file/dir modified: /projects/akhot2/group-01-phys371-sp2023/yolov5_model/wandb/run-20230226_172550-2fvf94yn/files/output.log
2023-02-26 17:26:24,138 INFO    Thread-7  :168352 [dir_watcher.py:_on_file_modified():226] file/dir modified: /projects/akhot2/group-01-phys371-sp2023/yolov5_model/wandb/run-20230226_172550-2fvf94yn/files/config.yaml
2023-02-26 17:26:25,142 INFO    Thread-7  :168352 [dir_watcher.py:_on_file_modified():226] file/dir modified: /projects/akhot2/group-01-phys371-sp2023/yolov5_model/wandb/run-20230226_172550-2fvf94yn/files/output.log
2023-02-26 17:26:32,753 DEBUG   SenderThread:168352 [sender.py:send():232] send: stats
2023-02-26 17:26:33,316 DEBUG   HandlerThread:168352 [handler.py:handle_request():141] handle_request: stop_status
2023-02-26 17:26:33,317 DEBUG   SenderThread:168352 [sender.py:send_request():246] send_request: stop_status
2023-02-26 17:26:48,368 DEBUG   HandlerThread:168352 [handler.py:handle_request():141] handle_request: stop_status
2023-02-26 17:26:48,379 DEBUG   SenderThread:168352 [sender.py:send_request():246] send_request: stop_status
2023-02-26 17:26:52,795 INFO    Thread-7  :168352 [dir_watcher.py:_on_file_modified():226] file/dir modified: /projects/akhot2/group-01-phys371-sp2023/yolov5_model/wandb/run-20230226_172550-2fvf94yn/files/output.log
2023-02-26 17:26:58,861 INFO    Thread-7  :168352 [dir_watcher.py:_on_file_modified():226] file/dir modified: /projects/akhot2/group-01-phys371-sp2023/yolov5_model/wandb/run-20230226_172550-2fvf94yn/files/output.log
2023-02-26 17:27:00,845 INFO    Thread-7  :168352 [dir_watcher.py:_on_file_modified():226] file/dir modified: /projects/akhot2/group-01-phys371-sp2023/yolov5_model/wandb/run-20230226_172550-2fvf94yn/files/output.log
2023-02-26 17:27:02,846 INFO    Thread-7  :168352 [dir_watcher.py:_on_file_modified():226] file/dir modified: /projects/akhot2/group-01-phys371-sp2023/yolov5_model/wandb/run-20230226_172550-2fvf94yn/files/output.log
2023-02-26 17:27:03,814 DEBUG   HandlerThread:168352 [handler.py:handle_request():141] handle_request: stop_status
2023-02-26 17:27:03,815 DEBUG   SenderThread:168352 [sender.py:send_request():246] send_request: stop_status
2023-02-26 17:27:04,850 INFO    Thread-7  :168352 [dir_watcher.py:_on_file_modified():226] file/dir modified: /projects/akhot2/group-01-phys371-sp2023/yolov5_model/wandb/run-20230226_172550-2fvf94yn/files/output.log
2023-02-26 17:27:06,240 DEBUG   SenderThread:168352 [sender.py:send():232] send: stats
2023-02-26 17:27:06,852 INFO    Thread-7  :168352 [dir_watcher.py:_on_file_modified():226] file/dir modified: /projects/akhot2/group-01-phys371-sp2023/yolov5_model/wandb/run-20230226_172550-2fvf94yn/files/output.log
2023-02-26 17:27:08,862 INFO    Thread-7  :168352 [dir_watcher.py:_on_file_modified():226] file/dir modified: /projects/akhot2/group-01-phys371-sp2023/yolov5_model/wandb/run-20230226_172550-2fvf94yn/files/output.log
2023-02-26 17:27:10,864 INFO    Thread-7  :168352 [dir_watcher.py:_on_file_modified():226] file/dir modified: /projects/akhot2/group-01-phys371-sp2023/yolov5_model/wandb/run-20230226_172550-2fvf94yn/files/output.log
2023-02-26 17:27:13,005 INFO    Thread-7  :168352 [dir_watcher.py:_on_file_modified():226] file/dir modified: /projects/akhot2/group-01-phys371-sp2023/yolov5_model/wandb/run-20230226_172550-2fvf94yn/files/output.log
2023-02-26 17:27:15,107 INFO    Thread-7  :168352 [dir_watcher.py:_on_file_modified():226] file/dir modified: /projects/akhot2/group-01-phys371-sp2023/yolov5_model/wandb/run-20230226_172550-2fvf94yn/files/output.log
2023-02-26 17:27:17,106 INFO    Thread-7  :168352 [dir_watcher.py:_on_file_modified():226] file/dir modified: /projects/akhot2/group-01-phys371-sp2023/yolov5_model/wandb/run-20230226_172550-2fvf94yn/files/output.log
2023-02-26 17:27:18,885 DEBUG   HandlerThread:168352 [handler.py:handle_request():141] handle_request: stop_status
2023-02-26 17:27:18,889 DEBUG   SenderThread:168352 [sender.py:send_request():246] send_request: stop_status
2023-02-26 17:27:19,289 INFO    Thread-7  :168352 [dir_watcher.py:_on_file_modified():226] file/dir modified: /projects/akhot2/group-01-phys371-sp2023/yolov5_model/wandb/run-20230226_172550-2fvf94yn/files/output.log
2023-02-26 17:27:21,303 INFO    Thread-7  :168352 [dir_watcher.py:_on_file_modified():226] file/dir modified: /projects/akhot2/group-01-phys371-sp2023/yolov5_model/wandb/run-20230226_172550-2fvf94yn/files/output.log
2023-02-26 17:27:23,307 INFO    Thread-7  :168352 [dir_watcher.py:_on_file_modified():226] file/dir modified: /projects/akhot2/group-01-phys371-sp2023/yolov5_model/wandb/run-20230226_172550-2fvf94yn/files/output.log
2023-02-26 17:27:25,339 INFO    Thread-7  :168352 [dir_watcher.py:_on_file_modified():226] file/dir modified: /projects/akhot2/group-01-phys371-sp2023/yolov5_model/wandb/run-20230226_172550-2fvf94yn/files/output.log
2023-02-26 17:27:27,493 INFO    Thread-7  :168352 [dir_watcher.py:_on_file_modified():226] file/dir modified: /projects/akhot2/group-01-phys371-sp2023/yolov5_model/wandb/run-20230226_172550-2fvf94yn/files/output.log
2023-02-26 17:27:31,624 INFO    Thread-7  :168352 [dir_watcher.py:_on_file_modified():226] file/dir modified: /projects/akhot2/group-01-phys371-sp2023/yolov5_model/wandb/run-20230226_172550-2fvf94yn/files/output.log
2023-02-26 17:27:33,958 DEBUG   HandlerThread:168352 [handler.py:handle_request():141] handle_request: stop_status
2023-02-26 17:27:33,960 DEBUG   SenderThread:168352 [sender.py:send_request():246] send_request: stop_status
2023-02-26 17:27:37,785 INFO    Thread-7  :168352 [dir_watcher.py:_on_file_modified():226] file/dir modified: /projects/akhot2/group-01-phys371-sp2023/yolov5_model/wandb/run-20230226_172550-2fvf94yn/files/output.log
2023-02-26 17:27:39,899 INFO    Thread-7  :168352 [dir_watcher.py:_on_file_modified():226] file/dir modified: /projects/akhot2/group-01-phys371-sp2023/yolov5_model/wandb/run-20230226_172550-2fvf94yn/files/output.log
2023-02-26 17:27:41,262 DEBUG   SenderThread:168352 [sender.py:send():232] send: stats
2023-02-26 17:27:44,010 INFO    Thread-7  :168352 [dir_watcher.py:_on_file_modified():226] file/dir modified: /projects/akhot2/group-01-phys371-sp2023/yolov5_model/wandb/run-20230226_172550-2fvf94yn/files/output.log
2023-02-26 17:27:46,099 INFO    Thread-7  :168352 [dir_watcher.py:_on_file_modified():226] file/dir modified: /projects/akhot2/group-01-phys371-sp2023/yolov5_model/wandb/run-20230226_172550-2fvf94yn/files/output.log
2023-02-26 17:27:48,144 INFO    Thread-7  :168352 [dir_watcher.py:_on_file_modified():226] file/dir modified: /projects/akhot2/group-01-phys371-sp2023/yolov5_model/wandb/run-20230226_172550-2fvf94yn/files/output.log
2023-02-26 17:27:49,033 DEBUG   HandlerThread:168352 [handler.py:handle_request():141] handle_request: stop_status
2023-02-26 17:27:49,033 DEBUG   SenderThread:168352 [sender.py:send_request():246] send_request: stop_status
2023-02-26 17:27:50,148 INFO    Thread-7  :168352 [dir_watcher.py:_on_file_modified():226] file/dir modified: /projects/akhot2/group-01-phys371-sp2023/yolov5_model/wandb/run-20230226_172550-2fvf94yn/files/output.log
2023-02-26 17:27:51,525 DEBUG   SenderThread:168352 [sender.py:send():232] send: summary
2023-02-26 17:27:51,562 INFO    SenderThread:168352 [sender.py:_save_file():946] saving file wandb-summary.json with policy end
2023-02-26 17:27:51,563 DEBUG   SenderThread:168352 [sender.py:send():232] send: summary
2023-02-26 17:27:51,564 INFO    SenderThread:168352 [sender.py:_save_file():946] saving file wandb-summary.json with policy end
2023-02-26 17:27:51,564 DEBUG   SenderThread:168352 [sender.py:send():232] send: summary
2023-02-26 17:27:51,567 INFO    SenderThread:168352 [sender.py:_save_file():946] saving file wandb-summary.json with policy end
2023-02-26 17:27:51,567 DEBUG   SenderThread:168352 [sender.py:send():232] send: summary
2023-02-26 17:27:51,567 INFO    SenderThread:168352 [sender.py:_save_file():946] saving file wandb-summary.json with policy end
2023-02-26 17:27:51,568 DEBUG   SenderThread:168352 [sender.py:send():232] send: summary
2023-02-26 17:27:51,568 INFO    SenderThread:168352 [sender.py:_save_file():946] saving file wandb-summary.json with policy end
2023-02-26 17:27:51,719 DEBUG   SenderThread:168352 [sender.py:send():232] send: files
2023-02-26 17:27:51,720 INFO    SenderThread:168352 [sender.py:_save_file():946] saving file media/images/Labels_0_6a883c7ef52a3db02046.jpg with policy now
2023-02-26 17:27:51,727 DEBUG   SenderThread:168352 [sender.py:send():232] send: files
2023-02-26 17:27:51,727 INFO    SenderThread:168352 [sender.py:_save_file():946] saving file media/images/Labels_0_f68d571fdee6784f3d89.jpg with policy now
2023-02-26 17:27:51,895 DEBUG   SenderThread:168352 [sender.py:send():232] send: files
2023-02-26 17:27:51,896 INFO    SenderThread:168352 [sender.py:_save_file():946] saving file media/images/Mosaics_0_151826f941a635cc8383.jpg with policy now
2023-02-26 17:27:51,904 DEBUG   SenderThread:168352 [sender.py:send():232] send: files
2023-02-26 17:27:51,904 INFO    SenderThread:168352 [sender.py:_save_file():946] saving file media/images/Mosaics_0_2159ec3ded661ae299a1.jpg with policy now
2023-02-26 17:27:51,926 DEBUG   SenderThread:168352 [sender.py:send():232] send: files
2023-02-26 17:27:51,926 INFO    SenderThread:168352 [sender.py:_save_file():946] saving file media/images/Mosaics_0_f2da49c657c1724f1c74.jpg with policy now
2023-02-26 17:27:52,071 DEBUG   HandlerThread:168352 [handler.py:handle_request():141] handle_request: partial_history
2023-02-26 17:27:52,074 DEBUG   SenderThread:168352 [sender.py:send():232] send: history
2023-02-26 17:27:52,074 DEBUG   SenderThread:168352 [sender.py:send():232] send: summary
2023-02-26 17:27:52,076 INFO    SenderThread:168352 [sender.py:_save_file():946] saving file wandb-summary.json with policy end
2023-02-26 17:27:52,081 INFO    Thread-13 :168352 [upload_job.py:push():137] Uploaded file /tmp/tmpjhsv3pxmwandb/a94ghydm-media/images/Labels_0_f68d571fdee6784f3d89.jpg
2023-02-26 17:27:52,158 INFO    Thread-7  :168352 [dir_watcher.py:_on_file_modified():226] file/dir modified: /projects/akhot2/group-01-phys371-sp2023/yolov5_model/wandb/run-20230226_172550-2fvf94yn/files/output.log
2023-02-26 17:27:52,159 INFO    Thread-7  :168352 [dir_watcher.py:_on_file_modified():226] file/dir modified: /projects/akhot2/group-01-phys371-sp2023/yolov5_model/wandb/run-20230226_172550-2fvf94yn/files/wandb-summary.json
2023-02-26 17:27:52,159 INFO    Thread-7  :168352 [dir_watcher.py:_on_file_created():213] file/dir created: /projects/akhot2/group-01-phys371-sp2023/yolov5_model/wandb/run-20230226_172550-2fvf94yn/files/media/images/Mosaics_0_151826f941a635cc8383.jpg
2023-02-26 17:27:52,160 INFO    Thread-7  :168352 [dir_watcher.py:_on_file_created():213] file/dir created: /projects/akhot2/group-01-phys371-sp2023/yolov5_model/wandb/run-20230226_172550-2fvf94yn/files/media/images/Mosaics_0_2159ec3ded661ae299a1.jpg
2023-02-26 17:27:52,160 INFO    Thread-7  :168352 [dir_watcher.py:_on_file_created():213] file/dir created: /projects/akhot2/group-01-phys371-sp2023/yolov5_model/wandb/run-20230226_172550-2fvf94yn/files/media/images/Mosaics_0_f2da49c657c1724f1c74.jpg
2023-02-26 17:27:52,160 INFO    Thread-7  :168352 [dir_watcher.py:_on_file_created():213] file/dir created: /projects/akhot2/group-01-phys371-sp2023/yolov5_model/wandb/run-20230226_172550-2fvf94yn/files/media/images/Labels_0_f68d571fdee6784f3d89.jpg
2023-02-26 17:27:52,160 INFO    Thread-7  :168352 [dir_watcher.py:_on_file_created():213] file/dir created: /projects/akhot2/group-01-phys371-sp2023/yolov5_model/wandb/run-20230226_172550-2fvf94yn/files/media/images/Labels_0_6a883c7ef52a3db02046.jpg
2023-02-26 17:27:52,160 INFO    Thread-7  :168352 [dir_watcher.py:_on_file_created():213] file/dir created: /projects/akhot2/group-01-phys371-sp2023/yolov5_model/wandb/run-20230226_172550-2fvf94yn/files/media
2023-02-26 17:27:52,160 INFO    Thread-7  :168352 [dir_watcher.py:_on_file_created():213] file/dir created: /projects/akhot2/group-01-phys371-sp2023/yolov5_model/wandb/run-20230226_172550-2fvf94yn/files/media/images
2023-02-26 17:27:52,172 INFO    Thread-12 :168352 [upload_job.py:push():137] Uploaded file /tmp/tmpjhsv3pxmwandb/1cs9ulld-media/images/Labels_0_6a883c7ef52a3db02046.jpg
2023-02-26 17:27:52,236 INFO    Thread-14 :168352 [upload_job.py:push():137] Uploaded file /tmp/tmpjhsv3pxmwandb/xrz5vxeg-media/images/Mosaics_0_151826f941a635cc8383.jpg
2023-02-26 17:27:52,292 INFO    Thread-16 :168352 [upload_job.py:push():137] Uploaded file /tmp/tmpjhsv3pxmwandb/3kcnm1ky-media/images/Mosaics_0_f2da49c657c1724f1c74.jpg
2023-02-26 17:27:52,362 INFO    Thread-15 :168352 [upload_job.py:push():137] Uploaded file /tmp/tmpjhsv3pxmwandb/1w8vm3ci-media/images/Mosaics_0_2159ec3ded661ae299a1.jpg
2023-02-26 17:27:54,164 INFO    Thread-7  :168352 [dir_watcher.py:_on_file_modified():226] file/dir modified: /projects/akhot2/group-01-phys371-sp2023/yolov5_model/wandb/run-20230226_172550-2fvf94yn/files/output.log
2023-02-26 17:27:58,333 INFO    Thread-7  :168352 [dir_watcher.py:_on_file_modified():226] file/dir modified: /projects/akhot2/group-01-phys371-sp2023/yolov5_model/wandb/run-20230226_172550-2fvf94yn/files/output.log
2023-02-26 17:28:00,478 INFO    Thread-7  :168352 [dir_watcher.py:_on_file_modified():226] file/dir modified: /projects/akhot2/group-01-phys371-sp2023/yolov5_model/wandb/run-20230226_172550-2fvf94yn/files/output.log
2023-02-26 17:28:02,690 INFO    Thread-7  :168352 [dir_watcher.py:_on_file_modified():226] file/dir modified: /projects/akhot2/group-01-phys371-sp2023/yolov5_model/wandb/run-20230226_172550-2fvf94yn/files/output.log
2023-02-26 17:28:04,187 DEBUG   HandlerThread:168352 [handler.py:handle_request():141] handle_request: stop_status
2023-02-26 17:28:04,188 DEBUG   SenderThread:168352 [sender.py:send_request():246] send_request: stop_status
2023-02-26 17:28:04,546 INFO    Thread-7  :168352 [dir_watcher.py:_on_file_modified():226] file/dir modified: /projects/akhot2/group-01-phys371-sp2023/yolov5_model/wandb/run-20230226_172550-2fvf94yn/files/output.log
2023-02-26 17:28:06,558 INFO    Thread-7  :168352 [dir_watcher.py:_on_file_modified():226] file/dir modified: /projects/akhot2/group-01-phys371-sp2023/yolov5_model/wandb/run-20230226_172550-2fvf94yn/files/output.log
2023-02-26 17:28:08,564 INFO    Thread-7  :168352 [dir_watcher.py:_on_file_modified():226] file/dir modified: /projects/akhot2/group-01-phys371-sp2023/yolov5_model/wandb/run-20230226_172550-2fvf94yn/files/output.log
2023-02-26 17:28:14,787 INFO    Thread-7  :168352 [dir_watcher.py:_on_file_modified():226] file/dir modified: /projects/akhot2/group-01-phys371-sp2023/yolov5_model/wandb/run-20230226_172550-2fvf94yn/files/output.log
2023-02-26 17:28:15,183 DEBUG   SenderThread:168352 [sender.py:send():232] send: stats
2023-02-26 17:28:16,909 INFO    Thread-7  :168352 [dir_watcher.py:_on_file_modified():226] file/dir modified: /projects/akhot2/group-01-phys371-sp2023/yolov5_model/wandb/run-20230226_172550-2fvf94yn/files/output.log
2023-02-26 17:28:19,283 DEBUG   HandlerThread:168352 [handler.py:handle_request():141] handle_request: stop_status
2023-02-26 17:28:19,286 DEBUG   SenderThread:168352 [sender.py:send_request():246] send_request: stop_status
2023-02-26 17:28:21,024 INFO    Thread-7  :168352 [dir_watcher.py:_on_file_modified():226] file/dir modified: /projects/akhot2/group-01-phys371-sp2023/yolov5_model/wandb/run-20230226_172550-2fvf94yn/files/output.log
2023-02-26 17:28:23,038 INFO    Thread-7  :168352 [dir_watcher.py:_on_file_modified():226] file/dir modified: /projects/akhot2/group-01-phys371-sp2023/yolov5_model/wandb/run-20230226_172550-2fvf94yn/files/output.log
2023-02-26 17:28:27,114 INFO    Thread-7  :168352 [dir_watcher.py:_on_file_modified():226] file/dir modified: /projects/akhot2/group-01-phys371-sp2023/yolov5_model/wandb/run-20230226_172550-2fvf94yn/files/output.log
2023-02-26 17:28:33,342 INFO    Thread-7  :168352 [dir_watcher.py:_on_file_modified():226] file/dir modified: /projects/akhot2/group-01-phys371-sp2023/yolov5_model/wandb/run-20230226_172550-2fvf94yn/files/output.log
2023-02-26 17:28:34,606 DEBUG   HandlerThread:168352 [handler.py:handle_request():141] handle_request: stop_status
2023-02-26 17:28:34,610 DEBUG   SenderThread:168352 [sender.py:send_request():246] send_request: stop_status
2023-02-26 17:28:39,438 INFO    Thread-7  :168352 [dir_watcher.py:_on_file_modified():226] file/dir modified: /projects/akhot2/group-01-phys371-sp2023/yolov5_model/wandb/run-20230226_172550-2fvf94yn/files/output.log
2023-02-26 17:28:41,547 INFO    Thread-7  :168352 [dir_watcher.py:_on_file_modified():226] file/dir modified: /projects/akhot2/group-01-phys371-sp2023/yolov5_model/wandb/run-20230226_172550-2fvf94yn/files/output.log
2023-02-26 17:28:44,573 INFO    Thread-7  :168352 [dir_watcher.py:_on_file_modified():226] file/dir modified: /projects/akhot2/group-01-phys371-sp2023/yolov5_model/wandb/run-20230226_172550-2fvf94yn/files/output.log
2023-02-26 17:28:46,593 INFO    Thread-7  :168352 [dir_watcher.py:_on_file_modified():226] file/dir modified: /projects/akhot2/group-01-phys371-sp2023/yolov5_model/wandb/run-20230226_172550-2fvf94yn/files/output.log
2023-02-26 17:28:49,176 DEBUG   SenderThread:168352 [sender.py:send():232] send: stats
2023-02-26 17:28:49,721 DEBUG   HandlerThread:168352 [handler.py:handle_request():141] handle_request: stop_status
2023-02-26 17:28:49,723 DEBUG   SenderThread:168352 [sender.py:send_request():246] send_request: stop_status
2023-02-26 17:28:54,833 INFO    Thread-7  :168352 [dir_watcher.py:_on_file_modified():226] file/dir modified: /projects/akhot2/group-01-phys371-sp2023/yolov5_model/wandb/run-20230226_172550-2fvf94yn/files/output.log
2023-02-26 17:28:56,925 INFO    Thread-7  :168352 [dir_watcher.py:_on_file_modified():226] file/dir modified: /projects/akhot2/group-01-phys371-sp2023/yolov5_model/wandb/run-20230226_172550-2fvf94yn/files/output.log
2023-02-26 17:28:58,981 INFO    Thread-7  :168352 [dir_watcher.py:_on_file_modified():226] file/dir modified: /projects/akhot2/group-01-phys371-sp2023/yolov5_model/wandb/run-20230226_172550-2fvf94yn/files/output.log
2023-02-26 17:29:03,171 INFO    Thread-7  :168352 [dir_watcher.py:_on_file_modified():226] file/dir modified: /projects/akhot2/group-01-phys371-sp2023/yolov5_model/wandb/run-20230226_172550-2fvf94yn/files/output.log
2023-02-26 17:29:04,847 DEBUG   HandlerThread:168352 [handler.py:handle_request():141] handle_request: stop_status
2023-02-26 17:29:04,848 DEBUG   SenderThread:168352 [sender.py:send_request():246] send_request: stop_status
2023-02-26 17:29:09,520 INFO    Thread-7  :168352 [dir_watcher.py:_on_file_modified():226] file/dir modified: /projects/akhot2/group-01-phys371-sp2023/yolov5_model/wandb/run-20230226_172550-2fvf94yn/files/output.log
2023-02-26 17:29:13,588 INFO    Thread-7  :168352 [dir_watcher.py:_on_file_modified():226] file/dir modified: /projects/akhot2/group-01-phys371-sp2023/yolov5_model/wandb/run-20230226_172550-2fvf94yn/files/output.log
2023-02-26 17:29:15,593 INFO    Thread-7  :168352 [dir_watcher.py:_on_file_modified():226] file/dir modified: /projects/akhot2/group-01-phys371-sp2023/yolov5_model/wandb/run-20230226_172550-2fvf94yn/files/output.log
2023-02-26 17:29:17,676 INFO    Thread-7  :168352 [dir_watcher.py:_on_file_modified():226] file/dir modified: /projects/akhot2/group-01-phys371-sp2023/yolov5_model/wandb/run-20230226_172550-2fvf94yn/files/output.log
2023-02-26 17:29:18,023 DEBUG   HandlerThread:168352 [handler.py:handle_request():141] handle_request: partial_history
2023-02-26 17:29:18,025 DEBUG   SenderThread:168352 [sender.py:send():232] send: history
2023-02-26 17:29:18,026 DEBUG   SenderThread:168352 [sender.py:send():232] send: summary
2023-02-26 17:29:18,029 INFO    SenderThread:168352 [sender.py:_save_file():946] saving file wandb-summary.json with policy end
2023-02-26 17:29:18,679 INFO    Thread-7  :168352 [dir_watcher.py:_on_file_modified():226] file/dir modified: /projects/akhot2/group-01-phys371-sp2023/yolov5_model/wandb/run-20230226_172550-2fvf94yn/files/wandb-summary.json
2023-02-26 17:29:19,682 INFO    Thread-7  :168352 [dir_watcher.py:_on_file_modified():226] file/dir modified: /projects/akhot2/group-01-phys371-sp2023/yolov5_model/wandb/run-20230226_172550-2fvf94yn/files/output.log
2023-02-26 17:29:19,968 DEBUG   HandlerThread:168352 [handler.py:handle_request():141] handle_request: stop_status
2023-02-26 17:29:19,969 DEBUG   SenderThread:168352 [sender.py:send_request():246] send_request: stop_status
2023-02-26 17:29:21,771 INFO    Thread-7  :168352 [dir_watcher.py:_on_file_modified():226] file/dir modified: /projects/akhot2/group-01-phys371-sp2023/yolov5_model/wandb/run-20230226_172550-2fvf94yn/files/output.log
2023-02-26 17:29:22,751 DEBUG   SenderThread:168352 [sender.py:send():232] send: stats
2023-02-26 17:29:25,843 INFO    Thread-7  :168352 [dir_watcher.py:_on_file_modified():226] file/dir modified: /projects/akhot2/group-01-phys371-sp2023/yolov5_model/wandb/run-20230226_172550-2fvf94yn/files/output.log
2023-02-26 17:29:28,046 INFO    Thread-7  :168352 [dir_watcher.py:_on_file_modified():226] file/dir modified: /projects/akhot2/group-01-phys371-sp2023/yolov5_model/wandb/run-20230226_172550-2fvf94yn/files/output.log
2023-02-26 17:29:30,269 INFO    Thread-7  :168352 [dir_watcher.py:_on_file_modified():226] file/dir modified: /projects/akhot2/group-01-phys371-sp2023/yolov5_model/wandb/run-20230226_172550-2fvf94yn/files/output.log
2023-02-26 17:29:32,290 INFO    Thread-7  :168352 [dir_watcher.py:_on_file_modified():226] file/dir modified: /projects/akhot2/group-01-phys371-sp2023/yolov5_model/wandb/run-20230226_172550-2fvf94yn/files/output.log
2023-02-26 17:29:34,601 INFO    Thread-7  :168352 [dir_watcher.py:_on_file_modified():226] file/dir modified: /projects/akhot2/group-01-phys371-sp2023/yolov5_model/wandb/run-20230226_172550-2fvf94yn/files/output.log
2023-02-26 17:29:35,028 DEBUG   HandlerThread:168352 [handler.py:handle_request():141] handle_request: stop_status
2023-02-26 17:29:35,030 DEBUG   SenderThread:168352 [sender.py:send_request():246] send_request: stop_status
2023-02-26 17:29:38,794 INFO    Thread-7  :168352 [dir_watcher.py:_on_file_modified():226] file/dir modified: /projects/akhot2/group-01-phys371-sp2023/yolov5_model/wandb/run-20230226_172550-2fvf94yn/files/output.log
2023-02-26 17:29:41,864 INFO    Thread-7  :168352 [dir_watcher.py:_on_file_modified():226] file/dir modified: /projects/akhot2/group-01-phys371-sp2023/yolov5_model/wandb/run-20230226_172550-2fvf94yn/files/output.log
2023-02-26 17:29:46,078 INFO    Thread-7  :168352 [dir_watcher.py:_on_file_modified():226] file/dir modified: /projects/akhot2/group-01-phys371-sp2023/yolov5_model/wandb/run-20230226_172550-2fvf94yn/files/output.log
2023-02-26 17:29:48,084 INFO    Thread-7  :168352 [dir_watcher.py:_on_file_modified():226] file/dir modified: /projects/akhot2/group-01-phys371-sp2023/yolov5_model/wandb/run-20230226_172550-2fvf94yn/files/output.log
2023-02-26 17:29:50,088 INFO    Thread-7  :168352 [dir_watcher.py:_on_file_modified():226] file/dir modified: /projects/akhot2/group-01-phys371-sp2023/yolov5_model/wandb/run-20230226_172550-2fvf94yn/files/output.log
2023-02-26 17:29:50,201 DEBUG   HandlerThread:168352 [handler.py:handle_request():141] handle_request: stop_status
2023-02-26 17:29:50,201 DEBUG   SenderThread:168352 [sender.py:send_request():246] send_request: stop_status
2023-02-26 17:29:52,092 INFO    Thread-7  :168352 [dir_watcher.py:_on_file_modified():226] file/dir modified: /projects/akhot2/group-01-phys371-sp2023/yolov5_model/wandb/run-20230226_172550-2fvf94yn/files/output.log
2023-02-26 17:29:54,102 INFO    Thread-7  :168352 [dir_watcher.py:_on_file_modified():226] file/dir modified: /projects/akhot2/group-01-phys371-sp2023/yolov5_model/wandb/run-20230226_172550-2fvf94yn/files/output.log
2023-02-26 17:29:56,119 INFO    Thread-7  :168352 [dir_watcher.py:_on_file_modified():226] file/dir modified: /projects/akhot2/group-01-phys371-sp2023/yolov5_model/wandb/run-20230226_172550-2fvf94yn/files/output.log
2023-02-26 17:29:57,262 DEBUG   SenderThread:168352 [sender.py:send():232] send: stats
2023-02-26 17:29:58,221 INFO    Thread-7  :168352 [dir_watcher.py:_on_file_modified():226] file/dir modified: /projects/akhot2/group-01-phys371-sp2023/yolov5_model/wandb/run-20230226_172550-2fvf94yn/files/output.log
2023-02-26 17:30:00,288 INFO    Thread-7  :168352 [dir_watcher.py:_on_file_modified():226] file/dir modified: /projects/akhot2/group-01-phys371-sp2023/yolov5_model/wandb/run-20230226_172550-2fvf94yn/files/output.log
2023-02-26 17:30:02,403 INFO    Thread-7  :168352 [dir_watcher.py:_on_file_modified():226] file/dir modified: /projects/akhot2/group-01-phys371-sp2023/yolov5_model/wandb/run-20230226_172550-2fvf94yn/files/output.log
2023-02-26 17:30:04,411 INFO    Thread-7  :168352 [dir_watcher.py:_on_file_modified():226] file/dir modified: /projects/akhot2/group-01-phys371-sp2023/yolov5_model/wandb/run-20230226_172550-2fvf94yn/files/output.log
2023-02-26 17:30:05,346 DEBUG   HandlerThread:168352 [handler.py:handle_request():141] handle_request: stop_status
2023-02-26 17:30:05,354 DEBUG   SenderThread:168352 [sender.py:send_request():246] send_request: stop_status
2023-02-26 17:30:08,482 INFO    Thread-7  :168352 [dir_watcher.py:_on_file_modified():226] file/dir modified: /projects/akhot2/group-01-phys371-sp2023/yolov5_model/wandb/run-20230226_172550-2fvf94yn/files/output.log
2023-02-26 17:30:10,794 INFO    Thread-7  :168352 [dir_watcher.py:_on_file_modified():226] file/dir modified: /projects/akhot2/group-01-phys371-sp2023/yolov5_model/wandb/run-20230226_172550-2fvf94yn/files/output.log
2023-02-26 17:30:12,799 INFO    Thread-7  :168352 [dir_watcher.py:_on_file_modified():226] file/dir modified: /projects/akhot2/group-01-phys371-sp2023/yolov5_model/wandb/run-20230226_172550-2fvf94yn/files/output.log
2023-02-26 17:30:20,482 DEBUG   HandlerThread:168352 [handler.py:handle_request():141] handle_request: stop_status
2023-02-26 17:30:20,486 DEBUG   SenderThread:168352 [sender.py:send_request():246] send_request: stop_status
2023-02-26 17:30:20,899 INFO    Thread-7  :168352 [dir_watcher.py:_on_file_modified():226] file/dir modified: /projects/akhot2/group-01-phys371-sp2023/yolov5_model/wandb/run-20230226_172550-2fvf94yn/files/output.log
2023-02-26 17:30:25,007 INFO    Thread-7  :168352 [dir_watcher.py:_on_file_modified():226] file/dir modified: /projects/akhot2/group-01-phys371-sp2023/yolov5_model/wandb/run-20230226_172550-2fvf94yn/files/output.log
2023-02-26 17:30:27,082 INFO    Thread-7  :168352 [dir_watcher.py:_on_file_modified():226] file/dir modified: /projects/akhot2/group-01-phys371-sp2023/yolov5_model/wandb/run-20230226_172550-2fvf94yn/files/output.log
2023-02-26 17:30:29,085 INFO    Thread-7  :168352 [dir_watcher.py:_on_file_modified():226] file/dir modified: /projects/akhot2/group-01-phys371-sp2023/yolov5_model/wandb/run-20230226_172550-2fvf94yn/files/output.log
2023-02-26 17:30:30,103 DEBUG   SenderThread:168352 [sender.py:send():232] send: summary
2023-02-26 17:30:30,145 DEBUG   HandlerThread:168352 [handler.py:handle_request():141] handle_request: partial_history
2023-02-26 17:30:30,147 INFO    SenderThread:168352 [sender.py:_save_file():946] saving file wandb-summary.json with policy end
2023-02-26 17:30:30,148 DEBUG   SenderThread:168352 [sender.py:send():232] send: summary
2023-02-26 17:30:30,149 INFO    Thread-7  :168352 [dir_watcher.py:_on_file_modified():226] file/dir modified: /projects/akhot2/group-01-phys371-sp2023/yolov5_model/wandb/run-20230226_172550-2fvf94yn/files/wandb-summary.json
2023-02-26 17:30:30,150 INFO    SenderThread:168352 [sender.py:_save_file():946] saving file wandb-summary.json with policy end
2023-02-26 17:30:30,150 DEBUG   SenderThread:168352 [sender.py:send():232] send: summary
2023-02-26 17:30:30,151 INFO    SenderThread:168352 [sender.py:_save_file():946] saving file wandb-summary.json with policy end
2023-02-26 17:30:30,151 DEBUG   SenderThread:168352 [sender.py:send():232] send: summary
2023-02-26 17:30:30,152 INFO    SenderThread:168352 [sender.py:_save_file():946] saving file wandb-summary.json with policy end
2023-02-26 17:30:30,152 DEBUG   SenderThread:168352 [sender.py:send():232] send: summary
2023-02-26 17:30:30,153 INFO    SenderThread:168352 [sender.py:_save_file():946] saving file wandb-summary.json with policy end
2023-02-26 17:30:30,153 DEBUG   SenderThread:168352 [sender.py:send():232] send: history
2023-02-26 17:30:30,153 DEBUG   SenderThread:168352 [sender.py:send():232] send: summary
2023-02-26 17:30:30,155 INFO    SenderThread:168352 [sender.py:_save_file():946] saving file wandb-summary.json with policy end
2023-02-26 17:30:31,152 INFO    Thread-7  :168352 [dir_watcher.py:_on_file_modified():226] file/dir modified: /projects/akhot2/group-01-phys371-sp2023/yolov5_model/wandb/run-20230226_172550-2fvf94yn/files/output.log
2023-02-26 17:30:31,266 DEBUG   SenderThread:168352 [sender.py:send():232] send: stats
2023-02-26 17:30:33,276 INFO    Thread-7  :168352 [dir_watcher.py:_on_file_modified():226] file/dir modified: /projects/akhot2/group-01-phys371-sp2023/yolov5_model/wandb/run-20230226_172550-2fvf94yn/files/output.log
2023-02-26 17:30:36,147 DEBUG   HandlerThread:168352 [handler.py:handle_request():141] handle_request: stop_status
2023-02-26 17:30:36,148 DEBUG   SenderThread:168352 [sender.py:send_request():246] send_request: stop_status
2023-02-26 17:30:37,347 INFO    Thread-7  :168352 [dir_watcher.py:_on_file_modified():226] file/dir modified: /projects/akhot2/group-01-phys371-sp2023/yolov5_model/wandb/run-20230226_172550-2fvf94yn/files/output.log
2023-02-26 17:30:39,590 INFO    Thread-7  :168352 [dir_watcher.py:_on_file_modified():226] file/dir modified: /projects/akhot2/group-01-phys371-sp2023/yolov5_model/wandb/run-20230226_172550-2fvf94yn/files/output.log
2023-02-26 17:30:41,688 INFO    Thread-7  :168352 [dir_watcher.py:_on_file_modified():226] file/dir modified: /projects/akhot2/group-01-phys371-sp2023/yolov5_model/wandb/run-20230226_172550-2fvf94yn/files/output.log
2023-02-26 17:30:43,717 INFO    Thread-7  :168352 [dir_watcher.py:_on_file_modified():226] file/dir modified: /projects/akhot2/group-01-phys371-sp2023/yolov5_model/wandb/run-20230226_172550-2fvf94yn/files/output.log
2023-02-26 17:30:45,722 INFO    Thread-7  :168352 [dir_watcher.py:_on_file_modified():226] file/dir modified: /projects/akhot2/group-01-phys371-sp2023/yolov5_model/wandb/run-20230226_172550-2fvf94yn/files/output.log
2023-02-26 17:30:47,840 INFO    Thread-7  :168352 [dir_watcher.py:_on_file_modified():226] file/dir modified: /projects/akhot2/group-01-phys371-sp2023/yolov5_model/wandb/run-20230226_172550-2fvf94yn/files/output.log
2023-02-26 17:30:49,936 INFO    Thread-7  :168352 [dir_watcher.py:_on_file_modified():226] file/dir modified: /projects/akhot2/group-01-phys371-sp2023/yolov5_model/wandb/run-20230226_172550-2fvf94yn/files/output.log
2023-02-26 17:30:51,234 DEBUG   HandlerThread:168352 [handler.py:handle_request():141] handle_request: stop_status
2023-02-26 17:30:51,235 DEBUG   SenderThread:168352 [sender.py:send_request():246] send_request: stop_status
2023-02-26 17:30:51,944 INFO    Thread-7  :168352 [dir_watcher.py:_on_file_modified():226] file/dir modified: /projects/akhot2/group-01-phys371-sp2023/yolov5_model/wandb/run-20230226_172550-2fvf94yn/files/output.log
2023-02-26 17:30:58,095 INFO    Thread-7  :168352 [dir_watcher.py:_on_file_modified():226] file/dir modified: /projects/akhot2/group-01-phys371-sp2023/yolov5_model/wandb/run-20230226_172550-2fvf94yn/files/output.log
2023-02-26 17:31:00,125 INFO    Thread-7  :168352 [dir_watcher.py:_on_file_modified():226] file/dir modified: /projects/akhot2/group-01-phys371-sp2023/yolov5_model/wandb/run-20230226_172550-2fvf94yn/files/output.log
2023-02-26 17:31:04,592 INFO    Thread-7  :168352 [dir_watcher.py:_on_file_modified():226] file/dir modified: /projects/akhot2/group-01-phys371-sp2023/yolov5_model/wandb/run-20230226_172550-2fvf94yn/files/output.log
2023-02-26 17:31:05,022 DEBUG   SenderThread:168352 [sender.py:send():232] send: stats
2023-02-26 17:31:06,370 DEBUG   HandlerThread:168352 [handler.py:handle_request():141] handle_request: stop_status
2023-02-26 17:31:06,373 DEBUG   SenderThread:168352 [sender.py:send_request():246] send_request: stop_status
2023-02-26 17:31:10,886 INFO    Thread-7  :168352 [dir_watcher.py:_on_file_modified():226] file/dir modified: /projects/akhot2/group-01-phys371-sp2023/yolov5_model/wandb/run-20230226_172550-2fvf94yn/files/output.log
2023-02-26 17:31:14,013 INFO    Thread-7  :168352 [dir_watcher.py:_on_file_modified():226] file/dir modified: /projects/akhot2/group-01-phys371-sp2023/yolov5_model/wandb/run-20230226_172550-2fvf94yn/files/output.log
2023-02-26 17:31:18,261 INFO    Thread-7  :168352 [dir_watcher.py:_on_file_modified():226] file/dir modified: /projects/akhot2/group-01-phys371-sp2023/yolov5_model/wandb/run-20230226_172550-2fvf94yn/files/output.log
2023-02-26 17:31:20,267 INFO    Thread-7  :168352 [dir_watcher.py:_on_file_modified():226] file/dir modified: /projects/akhot2/group-01-phys371-sp2023/yolov5_model/wandb/run-20230226_172550-2fvf94yn/files/output.log
2023-02-26 17:31:21,600 DEBUG   HandlerThread:168352 [handler.py:handle_request():141] handle_request: stop_status
2023-02-26 17:31:21,602 DEBUG   SenderThread:168352 [sender.py:send_request():246] send_request: stop_status
2023-02-26 17:31:24,650 INFO    Thread-7  :168352 [dir_watcher.py:_on_file_modified():226] file/dir modified: /projects/akhot2/group-01-phys371-sp2023/yolov5_model/wandb/run-20230226_172550-2fvf94yn/files/output.log
2023-02-26 17:31:28,719 INFO    Thread-7  :168352 [dir_watcher.py:_on_file_modified():226] file/dir modified: /projects/akhot2/group-01-phys371-sp2023/yolov5_model/wandb/run-20230226_172550-2fvf94yn/files/output.log
2023-02-26 17:31:30,781 INFO    Thread-7  :168352 [dir_watcher.py:_on_file_modified():226] file/dir modified: /projects/akhot2/group-01-phys371-sp2023/yolov5_model/wandb/run-20230226_172550-2fvf94yn/files/output.log
2023-02-26 17:31:32,758 INFO    Thread-7  :168352 [dir_watcher.py:_on_file_modified():226] file/dir modified: /projects/akhot2/group-01-phys371-sp2023/yolov5_model/wandb/run-20230226_172550-2fvf94yn/files/output.log
2023-02-26 17:31:34,796 INFO    Thread-7  :168352 [dir_watcher.py:_on_file_modified():226] file/dir modified: /projects/akhot2/group-01-phys371-sp2023/yolov5_model/wandb/run-20230226_172550-2fvf94yn/files/output.log
2023-02-26 17:31:36,907 DEBUG   HandlerThread:168352 [handler.py:handle_request():141] handle_request: stop_status
2023-02-26 17:31:36,909 DEBUG   SenderThread:168352 [sender.py:send_request():246] send_request: stop_status
2023-02-26 17:31:38,902 INFO    Thread-7  :168352 [dir_watcher.py:_on_file_modified():226] file/dir modified: /projects/akhot2/group-01-phys371-sp2023/yolov5_model/wandb/run-20230226_172550-2fvf94yn/files/output.log
2023-02-26 17:31:39,691 DEBUG   SenderThread:168352 [sender.py:send():232] send: stats
2023-02-26 17:31:43,080 INFO    Thread-7  :168352 [dir_watcher.py:_on_file_modified():226] file/dir modified: /projects/akhot2/group-01-phys371-sp2023/yolov5_model/wandb/run-20230226_172550-2fvf94yn/files/output.log
2023-02-26 17:31:45,145 INFO    Thread-7  :168352 [dir_watcher.py:_on_file_modified():226] file/dir modified: /projects/akhot2/group-01-phys371-sp2023/yolov5_model/wandb/run-20230226_172550-2fvf94yn/files/output.log
2023-02-26 17:31:47,296 INFO    Thread-7  :168352 [dir_watcher.py:_on_file_modified():226] file/dir modified: /projects/akhot2/group-01-phys371-sp2023/yolov5_model/wandb/run-20230226_172550-2fvf94yn/files/output.log
2023-02-26 17:31:48,353 INFO    Thread-7  :168352 [dir_watcher.py:_on_file_modified():226] file/dir modified: /projects/akhot2/group-01-phys371-sp2023/yolov5_model/wandb/run-20230226_172550-2fvf94yn/files/output.log
2023-02-26 17:31:50,366 INFO    Thread-7  :168352 [dir_watcher.py:_on_file_modified():226] file/dir modified: /projects/akhot2/group-01-phys371-sp2023/yolov5_model/wandb/run-20230226_172550-2fvf94yn/files/output.log
2023-02-26 17:31:50,819 DEBUG   HandlerThread:168352 [handler.py:handle_request():141] handle_request: partial_history
2023-02-26 17:31:50,821 DEBUG   SenderThread:168352 [sender.py:send():232] send: history
2023-02-26 17:31:50,821 DEBUG   SenderThread:168352 [sender.py:send():232] send: summary
2023-02-26 17:31:50,823 INFO    SenderThread:168352 [sender.py:_save_file():946] saving file wandb-summary.json with policy end
2023-02-26 17:31:51,457 INFO    Thread-7  :168352 [dir_watcher.py:_on_file_modified():226] file/dir modified: /projects/akhot2/group-01-phys371-sp2023/yolov5_model/wandb/run-20230226_172550-2fvf94yn/files/wandb-summary.json
2023-02-26 17:31:52,224 DEBUG   HandlerThread:168352 [handler.py:handle_request():141] handle_request: stop_status
2023-02-26 17:31:52,227 DEBUG   SenderThread:168352 [sender.py:send_request():246] send_request: stop_status
2023-02-26 17:31:52,460 INFO    Thread-7  :168352 [dir_watcher.py:_on_file_modified():226] file/dir modified: /projects/akhot2/group-01-phys371-sp2023/yolov5_model/wandb/run-20230226_172550-2fvf94yn/files/output.log
2023-02-26 17:31:54,465 INFO    Thread-7  :168352 [dir_watcher.py:_on_file_modified():226] file/dir modified: /projects/akhot2/group-01-phys371-sp2023/yolov5_model/wandb/run-20230226_172550-2fvf94yn/files/output.log
2023-02-26 17:31:56,624 INFO    Thread-7  :168352 [dir_watcher.py:_on_file_modified():226] file/dir modified: /projects/akhot2/group-01-phys371-sp2023/yolov5_model/wandb/run-20230226_172550-2fvf94yn/files/output.log
2023-02-26 17:31:58,708 INFO    Thread-7  :168352 [dir_watcher.py:_on_file_modified():226] file/dir modified: /projects/akhot2/group-01-phys371-sp2023/yolov5_model/wandb/run-20230226_172550-2fvf94yn/files/output.log
2023-02-26 17:32:02,779 INFO    Thread-7  :168352 [dir_watcher.py:_on_file_modified():226] file/dir modified: /projects/akhot2/group-01-phys371-sp2023/yolov5_model/wandb/run-20230226_172550-2fvf94yn/files/output.log
2023-02-26 17:32:04,864 INFO    Thread-7  :168352 [dir_watcher.py:_on_file_modified():226] file/dir modified: /projects/akhot2/group-01-phys371-sp2023/yolov5_model/wandb/run-20230226_172550-2fvf94yn/files/output.log
2023-02-26 17:32:06,921 INFO    Thread-7  :168352 [dir_watcher.py:_on_file_modified():226] file/dir modified: /projects/akhot2/group-01-phys371-sp2023/yolov5_model/wandb/run-20230226_172550-2fvf94yn/files/output.log
2023-02-26 17:32:07,342 DEBUG   HandlerThread:168352 [handler.py:handle_request():141] handle_request: stop_status
2023-02-26 17:32:07,343 DEBUG   SenderThread:168352 [sender.py:send_request():246] send_request: stop_status
2023-02-26 17:32:09,038 INFO    Thread-7  :168352 [dir_watcher.py:_on_file_modified():226] file/dir modified: /projects/akhot2/group-01-phys371-sp2023/yolov5_model/wandb/run-20230226_172550-2fvf94yn/files/output.log
2023-02-26 17:32:11,120 INFO    Thread-7  :168352 [dir_watcher.py:_on_file_modified():226] file/dir modified: /projects/akhot2/group-01-phys371-sp2023/yolov5_model/wandb/run-20230226_172550-2fvf94yn/files/output.log
2023-02-26 17:32:13,189 INFO    Thread-7  :168352 [dir_watcher.py:_on_file_modified():226] file/dir modified: /projects/akhot2/group-01-phys371-sp2023/yolov5_model/wandb/run-20230226_172550-2fvf94yn/files/output.log
2023-02-26 17:32:13,412 DEBUG   SenderThread:168352 [sender.py:send():232] send: stats
2023-02-26 17:32:15,198 INFO    Thread-7  :168352 [dir_watcher.py:_on_file_modified():226] file/dir modified: /projects/akhot2/group-01-phys371-sp2023/yolov5_model/wandb/run-20230226_172550-2fvf94yn/files/output.log
2023-02-26 17:32:17,201 INFO    Thread-7  :168352 [dir_watcher.py:_on_file_modified():226] file/dir modified: /projects/akhot2/group-01-phys371-sp2023/yolov5_model/wandb/run-20230226_172550-2fvf94yn/files/output.log
2023-02-26 17:32:19,318 INFO    Thread-7  :168352 [dir_watcher.py:_on_file_modified():226] file/dir modified: /projects/akhot2/group-01-phys371-sp2023/yolov5_model/wandb/run-20230226_172550-2fvf94yn/files/output.log
2023-02-26 17:32:21,486 INFO    Thread-7  :168352 [dir_watcher.py:_on_file_modified():226] file/dir modified: /projects/akhot2/group-01-phys371-sp2023/yolov5_model/wandb/run-20230226_172550-2fvf94yn/files/output.log
2023-02-26 17:32:22,641 DEBUG   HandlerThread:168352 [handler.py:handle_request():141] handle_request: stop_status
2023-02-26 17:32:22,642 DEBUG   SenderThread:168352 [sender.py:send_request():246] send_request: stop_status
2023-02-26 17:32:23,494 INFO    Thread-7  :168352 [dir_watcher.py:_on_file_modified():226] file/dir modified: /projects/akhot2/group-01-phys371-sp2023/yolov5_model/wandb/run-20230226_172550-2fvf94yn/files/output.log
2023-02-26 17:32:25,513 INFO    Thread-7  :168352 [dir_watcher.py:_on_file_modified():226] file/dir modified: /projects/akhot2/group-01-phys371-sp2023/yolov5_model/wandb/run-20230226_172550-2fvf94yn/files/output.log
2023-02-26 17:32:27,527 INFO    Thread-7  :168352 [dir_watcher.py:_on_file_modified():226] file/dir modified: /projects/akhot2/group-01-phys371-sp2023/yolov5_model/wandb/run-20230226_172550-2fvf94yn/files/output.log
2023-02-26 17:32:29,538 INFO    Thread-7  :168352 [dir_watcher.py:_on_file_modified():226] file/dir modified: /projects/akhot2/group-01-phys371-sp2023/yolov5_model/wandb/run-20230226_172550-2fvf94yn/files/output.log
2023-02-26 17:32:35,677 INFO    Thread-7  :168352 [dir_watcher.py:_on_file_modified():226] file/dir modified: /projects/akhot2/group-01-phys371-sp2023/yolov5_model/wandb/run-20230226_172550-2fvf94yn/files/output.log
2023-02-26 17:32:37,727 INFO    Thread-7  :168352 [dir_watcher.py:_on_file_modified():226] file/dir modified: /projects/akhot2/group-01-phys371-sp2023/yolov5_model/wandb/run-20230226_172550-2fvf94yn/files/output.log
2023-02-26 17:32:37,900 DEBUG   HandlerThread:168352 [handler.py:handle_request():141] handle_request: stop_status
2023-02-26 17:32:37,901 DEBUG   SenderThread:168352 [sender.py:send_request():246] send_request: stop_status
2023-02-26 17:32:39,711 INFO    Thread-7  :168352 [dir_watcher.py:_on_file_modified():226] file/dir modified: /projects/akhot2/group-01-phys371-sp2023/yolov5_model/wandb/run-20230226_172550-2fvf94yn/files/output.log
2023-02-26 17:32:41,718 INFO    Thread-7  :168352 [dir_watcher.py:_on_file_modified():226] file/dir modified: /projects/akhot2/group-01-phys371-sp2023/yolov5_model/wandb/run-20230226_172550-2fvf94yn/files/output.log
2023-02-26 17:32:43,791 INFO    Thread-7  :168352 [dir_watcher.py:_on_file_modified():226] file/dir modified: /projects/akhot2/group-01-phys371-sp2023/yolov5_model/wandb/run-20230226_172550-2fvf94yn/files/output.log
2023-02-26 17:32:45,806 INFO    Thread-7  :168352 [dir_watcher.py:_on_file_modified():226] file/dir modified: /projects/akhot2/group-01-phys371-sp2023/yolov5_model/wandb/run-20230226_172550-2fvf94yn/files/output.log
2023-02-26 17:32:47,458 DEBUG   SenderThread:168352 [sender.py:send():232] send: stats
2023-02-26 17:32:47,838 INFO    Thread-7  :168352 [dir_watcher.py:_on_file_modified():226] file/dir modified: /projects/akhot2/group-01-phys371-sp2023/yolov5_model/wandb/run-20230226_172550-2fvf94yn/files/output.log
2023-02-26 17:32:53,053 DEBUG   HandlerThread:168352 [handler.py:handle_request():141] handle_request: stop_status
2023-02-26 17:32:53,055 DEBUG   SenderThread:168352 [sender.py:send_request():246] send_request: stop_status
2023-02-26 17:32:53,915 INFO    Thread-7  :168352 [dir_watcher.py:_on_file_modified():226] file/dir modified: /projects/akhot2/group-01-phys371-sp2023/yolov5_model/wandb/run-20230226_172550-2fvf94yn/files/output.log
2023-02-26 17:32:55,957 INFO    Thread-7  :168352 [dir_watcher.py:_on_file_modified():226] file/dir modified: /projects/akhot2/group-01-phys371-sp2023/yolov5_model/wandb/run-20230226_172550-2fvf94yn/files/output.log
2023-02-26 17:32:59,971 INFO    Thread-7  :168352 [dir_watcher.py:_on_file_modified():226] file/dir modified: /projects/akhot2/group-01-phys371-sp2023/yolov5_model/wandb/run-20230226_172550-2fvf94yn/files/output.log
2023-02-26 17:33:01,883 DEBUG   SenderThread:168352 [sender.py:send():232] send: summary
2023-02-26 17:33:01,885 DEBUG   HandlerThread:168352 [handler.py:handle_request():141] handle_request: partial_history
2023-02-26 17:33:01,887 INFO    SenderThread:168352 [sender.py:_save_file():946] saving file wandb-summary.json with policy end
2023-02-26 17:33:01,887 DEBUG   SenderThread:168352 [sender.py:send():232] send: summary
2023-02-26 17:33:01,889 INFO    SenderThread:168352 [sender.py:_save_file():946] saving file wandb-summary.json with policy end
2023-02-26 17:33:01,889 DEBUG   SenderThread:168352 [sender.py:send():232] send: summary
2023-02-26 17:33:01,890 INFO    SenderThread:168352 [sender.py:_save_file():946] saving file wandb-summary.json with policy end
2023-02-26 17:33:01,890 DEBUG   SenderThread:168352 [sender.py:send():232] send: summary
2023-02-26 17:33:01,891 INFO    SenderThread:168352 [sender.py:_save_file():946] saving file wandb-summary.json with policy end
2023-02-26 17:33:01,891 DEBUG   SenderThread:168352 [sender.py:send():232] send: summary
2023-02-26 17:33:01,892 INFO    SenderThread:168352 [sender.py:_save_file():946] saving file wandb-summary.json with policy end
2023-02-26 17:33:01,892 DEBUG   SenderThread:168352 [sender.py:send():232] send: history
2023-02-26 17:33:01,892 DEBUG   SenderThread:168352 [sender.py:send():232] send: summary
2023-02-26 17:33:01,893 INFO    SenderThread:168352 [sender.py:_save_file():946] saving file wandb-summary.json with policy end
2023-02-26 17:33:02,042 INFO    Thread-7  :168352 [dir_watcher.py:_on_file_modified():226] file/dir modified: /projects/akhot2/group-01-phys371-sp2023/yolov5_model/wandb/run-20230226_172550-2fvf94yn/files/output.log
2023-02-26 17:33:02,043 INFO    Thread-7  :168352 [dir_watcher.py:_on_file_modified():226] file/dir modified: /projects/akhot2/group-01-phys371-sp2023/yolov5_model/wandb/run-20230226_172550-2fvf94yn/files/wandb-summary.json
2023-02-26 17:33:04,133 INFO    Thread-7  :168352 [dir_watcher.py:_on_file_modified():226] file/dir modified: /projects/akhot2/group-01-phys371-sp2023/yolov5_model/wandb/run-20230226_172550-2fvf94yn/files/output.log
2023-02-26 17:33:06,146 INFO    Thread-7  :168352 [dir_watcher.py:_on_file_modified():226] file/dir modified: /projects/akhot2/group-01-phys371-sp2023/yolov5_model/wandb/run-20230226_172550-2fvf94yn/files/output.log
2023-02-26 17:33:08,160 INFO    Thread-7  :168352 [dir_watcher.py:_on_file_modified():226] file/dir modified: /projects/akhot2/group-01-phys371-sp2023/yolov5_model/wandb/run-20230226_172550-2fvf94yn/files/output.log
2023-02-26 17:33:08,237 DEBUG   HandlerThread:168352 [handler.py:handle_request():141] handle_request: stop_status
2023-02-26 17:33:08,237 DEBUG   SenderThread:168352 [sender.py:send_request():246] send_request: stop_status
2023-02-26 17:33:10,168 INFO    Thread-7  :168352 [dir_watcher.py:_on_file_modified():226] file/dir modified: /projects/akhot2/group-01-phys371-sp2023/yolov5_model/wandb/run-20230226_172550-2fvf94yn/files/output.log
2023-02-26 17:33:12,198 INFO    Thread-7  :168352 [dir_watcher.py:_on_file_modified():226] file/dir modified: /projects/akhot2/group-01-phys371-sp2023/yolov5_model/wandb/run-20230226_172550-2fvf94yn/files/output.log
2023-02-26 17:33:14,214 INFO    Thread-7  :168352 [dir_watcher.py:_on_file_modified():226] file/dir modified: /projects/akhot2/group-01-phys371-sp2023/yolov5_model/wandb/run-20230226_172550-2fvf94yn/files/output.log
2023-02-26 17:33:18,234 INFO    Thread-7  :168352 [dir_watcher.py:_on_file_modified():226] file/dir modified: /projects/akhot2/group-01-phys371-sp2023/yolov5_model/wandb/run-20230226_172550-2fvf94yn/files/output.log
2023-02-26 17:33:20,238 INFO    Thread-7  :168352 [dir_watcher.py:_on_file_modified():226] file/dir modified: /projects/akhot2/group-01-phys371-sp2023/yolov5_model/wandb/run-20230226_172550-2fvf94yn/files/output.log
2023-02-26 17:33:20,432 DEBUG   SenderThread:168352 [sender.py:send():232] send: stats
2023-02-26 17:33:22,243 INFO    Thread-7  :168352 [dir_watcher.py:_on_file_modified():226] file/dir modified: /projects/akhot2/group-01-phys371-sp2023/yolov5_model/wandb/run-20230226_172550-2fvf94yn/files/output.log
2023-02-26 17:33:23,335 DEBUG   HandlerThread:168352 [handler.py:handle_request():141] handle_request: stop_status
2023-02-26 17:33:23,336 DEBUG   SenderThread:168352 [sender.py:send_request():246] send_request: stop_status
2023-02-26 17:33:28,257 INFO    Thread-7  :168352 [dir_watcher.py:_on_file_modified():226] file/dir modified: /projects/akhot2/group-01-phys371-sp2023/yolov5_model/wandb/run-20230226_172550-2fvf94yn/files/output.log
2023-02-26 17:33:30,273 INFO    Thread-7  :168352 [dir_watcher.py:_on_file_modified():226] file/dir modified: /projects/akhot2/group-01-phys371-sp2023/yolov5_model/wandb/run-20230226_172550-2fvf94yn/files/output.log
2023-02-26 17:33:32,277 INFO    Thread-7  :168352 [dir_watcher.py:_on_file_modified():226] file/dir modified: /projects/akhot2/group-01-phys371-sp2023/yolov5_model/wandb/run-20230226_172550-2fvf94yn/files/output.log
2023-02-26 17:33:34,280 INFO    Thread-7  :168352 [dir_watcher.py:_on_file_modified():226] file/dir modified: /projects/akhot2/group-01-phys371-sp2023/yolov5_model/wandb/run-20230226_172550-2fvf94yn/files/output.log
2023-02-26 17:33:36,284 INFO    Thread-7  :168352 [dir_watcher.py:_on_file_modified():226] file/dir modified: /projects/akhot2/group-01-phys371-sp2023/yolov5_model/wandb/run-20230226_172550-2fvf94yn/files/output.log
2023-02-26 17:33:38,288 INFO    Thread-7  :168352 [dir_watcher.py:_on_file_modified():226] file/dir modified: /projects/akhot2/group-01-phys371-sp2023/yolov5_model/wandb/run-20230226_172550-2fvf94yn/files/output.log
2023-02-26 17:33:38,480 DEBUG   HandlerThread:168352 [handler.py:handle_request():141] handle_request: stop_status
2023-02-26 17:33:38,481 DEBUG   SenderThread:168352 [sender.py:send_request():246] send_request: stop_status
2023-02-26 17:33:44,345 INFO    Thread-7  :168352 [dir_watcher.py:_on_file_modified():226] file/dir modified: /projects/akhot2/group-01-phys371-sp2023/yolov5_model/wandb/run-20230226_172550-2fvf94yn/files/output.log
2023-02-26 17:33:46,350 INFO    Thread-7  :168352 [dir_watcher.py:_on_file_modified():226] file/dir modified: /projects/akhot2/group-01-phys371-sp2023/yolov5_model/wandb/run-20230226_172550-2fvf94yn/files/output.log
2023-02-26 17:33:48,358 INFO    Thread-7  :168352 [dir_watcher.py:_on_file_modified():226] file/dir modified: /projects/akhot2/group-01-phys371-sp2023/yolov5_model/wandb/run-20230226_172550-2fvf94yn/files/output.log
2023-02-26 17:33:50,361 INFO    Thread-7  :168352 [dir_watcher.py:_on_file_modified():226] file/dir modified: /projects/akhot2/group-01-phys371-sp2023/yolov5_model/wandb/run-20230226_172550-2fvf94yn/files/output.log
2023-02-26 17:33:52,456 DEBUG   SenderThread:168352 [sender.py:send():232] send: stats
2023-02-26 17:33:53,558 DEBUG   HandlerThread:168352 [handler.py:handle_request():141] handle_request: stop_status
2023-02-26 17:33:53,558 DEBUG   SenderThread:168352 [sender.py:send_request():246] send_request: stop_status
2023-02-26 17:33:54,368 INFO    Thread-7  :168352 [dir_watcher.py:_on_file_modified():226] file/dir modified: /projects/akhot2/group-01-phys371-sp2023/yolov5_model/wandb/run-20230226_172550-2fvf94yn/files/output.log
2023-02-26 17:34:00,376 INFO    Thread-7  :168352 [dir_watcher.py:_on_file_modified():226] file/dir modified: /projects/akhot2/group-01-phys371-sp2023/yolov5_model/wandb/run-20230226_172550-2fvf94yn/files/output.log
2023-02-26 17:34:02,379 INFO    Thread-7  :168352 [dir_watcher.py:_on_file_modified():226] file/dir modified: /projects/akhot2/group-01-phys371-sp2023/yolov5_model/wandb/run-20230226_172550-2fvf94yn/files/output.log
2023-02-26 17:34:03,018 DEBUG   HandlerThread:168352 [handler.py:handle_request():141] handle_request: partial_history
2023-02-26 17:34:03,020 DEBUG   SenderThread:168352 [sender.py:send():232] send: history
2023-02-26 17:34:03,020 DEBUG   SenderThread:168352 [sender.py:send():232] send: summary
2023-02-26 17:34:03,022 INFO    SenderThread:168352 [sender.py:_save_file():946] saving file wandb-summary.json with policy end
2023-02-26 17:34:03,381 INFO    Thread-7  :168352 [dir_watcher.py:_on_file_modified():226] file/dir modified: /projects/akhot2/group-01-phys371-sp2023/yolov5_model/wandb/run-20230226_172550-2fvf94yn/files/wandb-summary.json
2023-02-26 17:34:04,383 INFO    Thread-7  :168352 [dir_watcher.py:_on_file_modified():226] file/dir modified: /projects/akhot2/group-01-phys371-sp2023/yolov5_model/wandb/run-20230226_172550-2fvf94yn/files/output.log
2023-02-26 17:34:06,386 INFO    Thread-7  :168352 [dir_watcher.py:_on_file_modified():226] file/dir modified: /projects/akhot2/group-01-phys371-sp2023/yolov5_model/wandb/run-20230226_172550-2fvf94yn/files/output.log
2023-02-26 17:34:08,389 INFO    Thread-7  :168352 [dir_watcher.py:_on_file_modified():226] file/dir modified: /projects/akhot2/group-01-phys371-sp2023/yolov5_model/wandb/run-20230226_172550-2fvf94yn/files/output.log
2023-02-26 17:34:08,632 DEBUG   HandlerThread:168352 [handler.py:handle_request():141] handle_request: stop_status
2023-02-26 17:34:08,633 DEBUG   SenderThread:168352 [sender.py:send_request():246] send_request: stop_status
2023-02-26 17:34:10,392 INFO    Thread-7  :168352 [dir_watcher.py:_on_file_modified():226] file/dir modified: /projects/akhot2/group-01-phys371-sp2023/yolov5_model/wandb/run-20230226_172550-2fvf94yn/files/output.log
2023-02-26 17:34:14,398 INFO    Thread-7  :168352 [dir_watcher.py:_on_file_modified():226] file/dir modified: /projects/akhot2/group-01-phys371-sp2023/yolov5_model/wandb/run-20230226_172550-2fvf94yn/files/output.log
2023-02-26 17:34:16,401 INFO    Thread-7  :168352 [dir_watcher.py:_on_file_modified():226] file/dir modified: /projects/akhot2/group-01-phys371-sp2023/yolov5_model/wandb/run-20230226_172550-2fvf94yn/files/output.log
2023-02-26 17:34:18,404 INFO    Thread-7  :168352 [dir_watcher.py:_on_file_modified():226] file/dir modified: /projects/akhot2/group-01-phys371-sp2023/yolov5_model/wandb/run-20230226_172550-2fvf94yn/files/output.log
2023-02-26 17:34:22,410 INFO    Thread-7  :168352 [dir_watcher.py:_on_file_modified():226] file/dir modified: /projects/akhot2/group-01-phys371-sp2023/yolov5_model/wandb/run-20230226_172550-2fvf94yn/files/output.log
2023-02-26 17:34:23,692 DEBUG   HandlerThread:168352 [handler.py:handle_request():141] handle_request: stop_status
2023-02-26 17:34:23,693 DEBUG   SenderThread:168352 [sender.py:send_request():246] send_request: stop_status
2023-02-26 17:34:24,413 INFO    Thread-7  :168352 [dir_watcher.py:_on_file_modified():226] file/dir modified: /projects/akhot2/group-01-phys371-sp2023/yolov5_model/wandb/run-20230226_172550-2fvf94yn/files/output.log
2023-02-26 17:34:24,480 DEBUG   SenderThread:168352 [sender.py:send():232] send: stats
2023-02-26 17:34:30,422 INFO    Thread-7  :168352 [dir_watcher.py:_on_file_modified():226] file/dir modified: /projects/akhot2/group-01-phys371-sp2023/yolov5_model/wandb/run-20230226_172550-2fvf94yn/files/output.log
2023-02-26 17:34:32,425 INFO    Thread-7  :168352 [dir_watcher.py:_on_file_modified():226] file/dir modified: /projects/akhot2/group-01-phys371-sp2023/yolov5_model/wandb/run-20230226_172550-2fvf94yn/files/output.log
2023-02-26 17:34:34,428 INFO    Thread-7  :168352 [dir_watcher.py:_on_file_modified():226] file/dir modified: /projects/akhot2/group-01-phys371-sp2023/yolov5_model/wandb/run-20230226_172550-2fvf94yn/files/output.log
2023-02-26 17:34:38,438 INFO    Thread-7  :168352 [dir_watcher.py:_on_file_modified():226] file/dir modified: /projects/akhot2/group-01-phys371-sp2023/yolov5_model/wandb/run-20230226_172550-2fvf94yn/files/output.log
2023-02-26 17:34:38,770 DEBUG   HandlerThread:168352 [handler.py:handle_request():141] handle_request: stop_status
2023-02-26 17:34:38,770 DEBUG   SenderThread:168352 [sender.py:send_request():246] send_request: stop_status
2023-02-26 17:34:40,441 INFO    Thread-7  :168352 [dir_watcher.py:_on_file_modified():226] file/dir modified: /projects/akhot2/group-01-phys371-sp2023/yolov5_model/wandb/run-20230226_172550-2fvf94yn/files/output.log
2023-02-26 17:34:44,450 INFO    Thread-7  :168352 [dir_watcher.py:_on_file_modified():226] file/dir modified: /projects/akhot2/group-01-phys371-sp2023/yolov5_model/wandb/run-20230226_172550-2fvf94yn/files/output.log
2023-02-26 17:34:46,453 INFO    Thread-7  :168352 [dir_watcher.py:_on_file_modified():226] file/dir modified: /projects/akhot2/group-01-phys371-sp2023/yolov5_model/wandb/run-20230226_172550-2fvf94yn/files/output.log
2023-02-26 17:34:48,456 INFO    Thread-7  :168352 [dir_watcher.py:_on_file_modified():226] file/dir modified: /projects/akhot2/group-01-phys371-sp2023/yolov5_model/wandb/run-20230226_172550-2fvf94yn/files/output.log
2023-02-26 17:34:52,462 INFO    Thread-7  :168352 [dir_watcher.py:_on_file_modified():226] file/dir modified: /projects/akhot2/group-01-phys371-sp2023/yolov5_model/wandb/run-20230226_172550-2fvf94yn/files/output.log
2023-02-26 17:34:53,819 DEBUG   HandlerThread:168352 [handler.py:handle_request():141] handle_request: stop_status
2023-02-26 17:34:53,819 DEBUG   SenderThread:168352 [sender.py:send_request():246] send_request: stop_status
2023-02-26 17:34:54,465 INFO    Thread-7  :168352 [dir_watcher.py:_on_file_modified():226] file/dir modified: /projects/akhot2/group-01-phys371-sp2023/yolov5_model/wandb/run-20230226_172550-2fvf94yn/files/output.log
2023-02-26 17:34:56,446 DEBUG   SenderThread:168352 [sender.py:send():232] send: stats
2023-02-26 17:35:00,474 INFO    Thread-7  :168352 [dir_watcher.py:_on_file_modified():226] file/dir modified: /projects/akhot2/group-01-phys371-sp2023/yolov5_model/wandb/run-20230226_172550-2fvf94yn/files/output.log
2023-02-26 17:35:02,065 DEBUG   SenderThread:168352 [sender.py:send():232] send: summary
2023-02-26 17:35:02,067 DEBUG   HandlerThread:168352 [handler.py:handle_request():141] handle_request: partial_history
2023-02-26 17:35:02,068 INFO    SenderThread:168352 [sender.py:_save_file():946] saving file wandb-summary.json with policy end
2023-02-26 17:35:02,068 DEBUG   SenderThread:168352 [sender.py:send():232] send: summary
2023-02-26 17:35:02,069 INFO    SenderThread:168352 [sender.py:_save_file():946] saving file wandb-summary.json with policy end
2023-02-26 17:35:02,070 DEBUG   SenderThread:168352 [sender.py:send():232] send: summary
2023-02-26 17:35:02,070 INFO    SenderThread:168352 [sender.py:_save_file():946] saving file wandb-summary.json with policy end
2023-02-26 17:35:02,070 DEBUG   SenderThread:168352 [sender.py:send():232] send: summary
2023-02-26 17:35:02,071 INFO    SenderThread:168352 [sender.py:_save_file():946] saving file wandb-summary.json with policy end
2023-02-26 17:35:02,071 DEBUG   SenderThread:168352 [sender.py:send():232] send: summary
2023-02-26 17:35:02,072 INFO    SenderThread:168352 [sender.py:_save_file():946] saving file wandb-summary.json with policy end
2023-02-26 17:35:02,072 DEBUG   SenderThread:168352 [sender.py:send():232] send: history
2023-02-26 17:35:02,073 DEBUG   SenderThread:168352 [sender.py:send():232] send: summary
2023-02-26 17:35:02,073 INFO    SenderThread:168352 [sender.py:_save_file():946] saving file wandb-summary.json with policy end
2023-02-26 17:35:02,478 INFO    Thread-7  :168352 [dir_watcher.py:_on_file_modified():226] file/dir modified: /projects/akhot2/group-01-phys371-sp2023/yolov5_model/wandb/run-20230226_172550-2fvf94yn/files/output.log
2023-02-26 17:35:02,479 INFO    Thread-7  :168352 [dir_watcher.py:_on_file_modified():226] file/dir modified: /projects/akhot2/group-01-phys371-sp2023/yolov5_model/wandb/run-20230226_172550-2fvf94yn/files/wandb-summary.json
2023-02-26 17:35:04,483 INFO    Thread-7  :168352 [dir_watcher.py:_on_file_modified():226] file/dir modified: /projects/akhot2/group-01-phys371-sp2023/yolov5_model/wandb/run-20230226_172550-2fvf94yn/files/output.log
2023-02-26 17:35:08,489 INFO    Thread-7  :168352 [dir_watcher.py:_on_file_modified():226] file/dir modified: /projects/akhot2/group-01-phys371-sp2023/yolov5_model/wandb/run-20230226_172550-2fvf94yn/files/output.log
2023-02-26 17:35:08,882 DEBUG   HandlerThread:168352 [handler.py:handle_request():141] handle_request: stop_status
2023-02-26 17:35:08,882 DEBUG   SenderThread:168352 [sender.py:send_request():246] send_request: stop_status
2023-02-26 17:35:10,493 INFO    Thread-7  :168352 [dir_watcher.py:_on_file_modified():226] file/dir modified: /projects/akhot2/group-01-phys371-sp2023/yolov5_model/wandb/run-20230226_172550-2fvf94yn/files/output.log
2023-02-26 17:35:14,500 INFO    Thread-7  :168352 [dir_watcher.py:_on_file_modified():226] file/dir modified: /projects/akhot2/group-01-phys371-sp2023/yolov5_model/wandb/run-20230226_172550-2fvf94yn/files/output.log
2023-02-26 17:35:16,659 INFO    Thread-7  :168352 [dir_watcher.py:_on_file_modified():226] file/dir modified: /projects/akhot2/group-01-phys371-sp2023/yolov5_model/wandb/run-20230226_172550-2fvf94yn/files/output.log
2023-02-26 17:35:18,684 INFO    Thread-7  :168352 [dir_watcher.py:_on_file_modified():226] file/dir modified: /projects/akhot2/group-01-phys371-sp2023/yolov5_model/wandb/run-20230226_172550-2fvf94yn/files/output.log
2023-02-26 17:35:23,980 DEBUG   HandlerThread:168352 [handler.py:handle_request():141] handle_request: stop_status
2023-02-26 17:35:23,982 DEBUG   SenderThread:168352 [sender.py:send_request():246] send_request: stop_status
2023-02-26 17:35:24,738 INFO    Thread-7  :168352 [dir_watcher.py:_on_file_modified():226] file/dir modified: /projects/akhot2/group-01-phys371-sp2023/yolov5_model/wandb/run-20230226_172550-2fvf94yn/files/output.log
2023-02-26 17:35:27,079 INFO    Thread-7  :168352 [dir_watcher.py:_on_file_modified():226] file/dir modified: /projects/akhot2/group-01-phys371-sp2023/yolov5_model/wandb/run-20230226_172550-2fvf94yn/files/output.log
2023-02-26 17:35:29,264 DEBUG   SenderThread:168352 [sender.py:send():232] send: stats
2023-02-26 17:35:39,217 DEBUG   HandlerThread:168352 [handler.py:handle_request():141] handle_request: stop_status
2023-02-26 17:35:39,249 DEBUG   SenderThread:168352 [sender.py:send_request():246] send_request: stop_status
2023-02-26 17:35:41,604 INFO    Thread-7  :168352 [dir_watcher.py:_on_file_modified():226] file/dir modified: /projects/akhot2/group-01-phys371-sp2023/yolov5_model/wandb/run-20230226_172550-2fvf94yn/files/output.log
2023-02-26 17:35:43,660 INFO    Thread-7  :168352 [dir_watcher.py:_on_file_modified():226] file/dir modified: /projects/akhot2/group-01-phys371-sp2023/yolov5_model/wandb/run-20230226_172550-2fvf94yn/files/output.log
2023-02-26 17:35:50,189 INFO    Thread-7  :168352 [dir_watcher.py:_on_file_modified():226] file/dir modified: /projects/akhot2/group-01-phys371-sp2023/yolov5_model/wandb/run-20230226_172550-2fvf94yn/files/output.log
2023-02-26 17:35:54,997 DEBUG   HandlerThread:168352 [handler.py:handle_request():141] handle_request: stop_status
2023-02-26 17:35:55,001 DEBUG   SenderThread:168352 [sender.py:send_request():246] send_request: stop_status
2023-02-26 17:36:10,580 DEBUG   HandlerThread:168352 [handler.py:handle_request():141] handle_request: stop_status
2023-02-26 17:36:10,586 DEBUG   SenderThread:168352 [sender.py:send_request():246] send_request: stop_status
2023-02-26 17:36:11,895 DEBUG   SenderThread:168352 [sender.py:send():232] send: stats
2023-02-26 17:36:17,843 INFO    Thread-7  :168352 [dir_watcher.py:_on_file_modified():226] file/dir modified: /projects/akhot2/group-01-phys371-sp2023/yolov5_model/wandb/run-20230226_172550-2fvf94yn/files/output.log
2023-02-26 17:36:26,584 DEBUG   HandlerThread:168352 [handler.py:handle_request():141] handle_request: stop_status
2023-02-26 17:36:26,615 DEBUG   SenderThread:168352 [sender.py:send_request():246] send_request: stop_status
2023-02-26 17:36:30,985 INFO    Thread-7  :168352 [dir_watcher.py:_on_file_modified():226] file/dir modified: /projects/akhot2/group-01-phys371-sp2023/yolov5_model/wandb/run-20230226_172550-2fvf94yn/files/output.log
2023-02-26 17:36:41,913 DEBUG   HandlerThread:168352 [handler.py:handle_request():141] handle_request: stop_status
2023-02-26 17:36:41,918 DEBUG   SenderThread:168352 [sender.py:send_request():246] send_request: stop_status
2023-02-26 17:36:42,914 INFO    Thread-7  :168352 [dir_watcher.py:_on_file_modified():226] file/dir modified: /projects/akhot2/group-01-phys371-sp2023/yolov5_model/wandb/run-20230226_172550-2fvf94yn/files/output.log
2023-02-26 17:36:47,257 INFO    Thread-7  :168352 [dir_watcher.py:_on_file_modified():226] file/dir modified: /projects/akhot2/group-01-phys371-sp2023/yolov5_model/wandb/run-20230226_172550-2fvf94yn/files/output.log
2023-02-26 17:36:49,640 INFO    Thread-7  :168352 [dir_watcher.py:_on_file_modified():226] file/dir modified: /projects/akhot2/group-01-phys371-sp2023/yolov5_model/wandb/run-20230226_172550-2fvf94yn/files/output.log
2023-02-26 17:36:54,810 DEBUG   SenderThread:168352 [sender.py:send():232] send: stats
2023-02-26 17:36:57,358 DEBUG   HandlerThread:168352 [handler.py:handle_request():141] handle_request: stop_status
2023-02-26 17:36:57,359 DEBUG   SenderThread:168352 [sender.py:send_request():246] send_request: stop_status
2023-02-26 17:36:58,117 INFO    Thread-7  :168352 [dir_watcher.py:_on_file_modified():226] file/dir modified: /projects/akhot2/group-01-phys371-sp2023/yolov5_model/wandb/run-20230226_172550-2fvf94yn/files/output.log
2023-02-26 17:37:00,112 INFO    Thread-7  :168352 [dir_watcher.py:_on_file_modified():226] file/dir modified: /projects/akhot2/group-01-phys371-sp2023/yolov5_model/wandb/run-20230226_172550-2fvf94yn/files/output.log
2023-02-26 17:37:08,108 INFO    Thread-7  :168352 [dir_watcher.py:_on_file_modified():226] file/dir modified: /projects/akhot2/group-01-phys371-sp2023/yolov5_model/wandb/run-20230226_172550-2fvf94yn/files/output.log
2023-02-26 17:37:10,857 WARNING MainThread:168352 [internal.py:wandb_internal():153] Internal process interrupt: 1
2023-02-26 17:37:11,197 DEBUG   SenderThread:168352 [sender.py:send():232] send: telemetry
2023-02-26 17:37:12,547 INFO    Thread-7  :168352 [dir_watcher.py:_on_file_modified():226] file/dir modified: /projects/akhot2/group-01-phys371-sp2023/yolov5_model/wandb/run-20230226_172550-2fvf94yn/files/output.log
2023-02-26 17:37:13,805 DEBUG   SenderThread:168352 [sender.py:send():232] send: exit
2023-02-26 17:37:13,806 DEBUG   HandlerThread:168352 [handler.py:handle_request():141] handle_request: poll_exit
2023-02-26 17:37:13,806 INFO    SenderThread:168352 [sender.py:send_exit():368] handling exit code: 255
2023-02-26 17:37:13,807 INFO    SenderThread:168352 [sender.py:send_exit():370] handling runtime: 680
2023-02-26 17:37:13,821 INFO    SenderThread:168352 [sender.py:_save_file():946] saving file wandb-summary.json with policy end
2023-02-26 17:37:13,824 INFO    SenderThread:168352 [sender.py:send_exit():376] send defer
2023-02-26 17:37:13,824 DEBUG   SenderThread:168352 [sender.py:send_request():246] send_request: poll_exit
2023-02-26 17:37:13,824 DEBUG   HandlerThread:168352 [handler.py:handle_request():141] handle_request: defer
2023-02-26 17:37:13,825 INFO    HandlerThread:168352 [handler.py:handle_request_defer():164] handle defer: 0
2023-02-26 17:37:13,825 DEBUG   SenderThread:168352 [sender.py:send_request():246] send_request: defer
2023-02-26 17:37:13,825 INFO    SenderThread:168352 [sender.py:send_request_defer():385] handle sender defer: 0
2023-02-26 17:37:13,825 INFO    SenderThread:168352 [sender.py:transition_state():389] send defer: 1
2023-02-26 17:37:13,825 DEBUG   HandlerThread:168352 [handler.py:handle_request():141] handle_request: defer
2023-02-26 17:37:13,825 INFO    HandlerThread:168352 [handler.py:handle_request_defer():164] handle defer: 1
2023-02-26 17:37:14,434 DEBUG   HandlerThread:168352 [handler.py:handle_request():141] handle_request: poll_exit
2023-02-26 17:37:14,435 DEBUG   SenderThread:168352 [sender.py:send_request():246] send_request: defer
2023-02-26 17:37:14,438 INFO    SenderThread:168352 [sender.py:send_request_defer():385] handle sender defer: 1
2023-02-26 17:37:14,438 INFO    SenderThread:168352 [sender.py:transition_state():389] send defer: 2
2023-02-26 17:37:14,438 DEBUG   SenderThread:168352 [sender.py:send_request():246] send_request: poll_exit
2023-02-26 17:37:14,438 DEBUG   SenderThread:168352 [sender.py:send():232] send: stats
2023-02-26 17:37:14,439 DEBUG   HandlerThread:168352 [handler.py:handle_request():141] handle_request: defer
2023-02-26 17:37:14,439 INFO    HandlerThread:168352 [handler.py:handle_request_defer():164] handle defer: 2
2023-02-26 17:37:14,439 DEBUG   SenderThread:168352 [sender.py:send_request():246] send_request: defer
2023-02-26 17:37:14,439 INFO    SenderThread:168352 [sender.py:send_request_defer():385] handle sender defer: 2
2023-02-26 17:37:14,439 INFO    SenderThread:168352 [sender.py:transition_state():389] send defer: 3
2023-02-26 17:37:14,439 DEBUG   HandlerThread:168352 [handler.py:handle_request():141] handle_request: defer
2023-02-26 17:37:14,439 INFO    HandlerThread:168352 [handler.py:handle_request_defer():164] handle defer: 3
2023-02-26 17:37:14,440 DEBUG   SenderThread:168352 [sender.py:send_request():246] send_request: defer
2023-02-26 17:37:14,440 INFO    SenderThread:168352 [sender.py:send_request_defer():385] handle sender defer: 3
2023-02-26 17:37:14,440 INFO    SenderThread:168352 [sender.py:transition_state():389] send defer: 4
2023-02-26 17:37:14,440 DEBUG   HandlerThread:168352 [handler.py:handle_request():141] handle_request: defer
2023-02-26 17:37:14,440 INFO    HandlerThread:168352 [handler.py:handle_request_defer():164] handle defer: 4
2023-02-26 17:37:14,440 DEBUG   SenderThread:168352 [sender.py:send():232] send: summary
2023-02-26 17:37:14,442 INFO    SenderThread:168352 [sender.py:_save_file():946] saving file wandb-summary.json with policy end
2023-02-26 17:37:14,442 DEBUG   SenderThread:168352 [sender.py:send_request():246] send_request: defer
2023-02-26 17:37:14,442 INFO    SenderThread:168352 [sender.py:send_request_defer():385] handle sender defer: 4
2023-02-26 17:37:14,442 INFO    SenderThread:168352 [sender.py:transition_state():389] send defer: 5
2023-02-26 17:37:14,443 DEBUG   HandlerThread:168352 [handler.py:handle_request():141] handle_request: defer
2023-02-26 17:37:14,443 INFO    HandlerThread:168352 [handler.py:handle_request_defer():164] handle defer: 5
2023-02-26 17:37:14,443 DEBUG   SenderThread:168352 [sender.py:send_request():246] send_request: defer
2023-02-26 17:37:14,443 INFO    SenderThread:168352 [sender.py:send_request_defer():385] handle sender defer: 5
2023-02-26 17:37:14,605 DEBUG   HandlerThread:168352 [handler.py:handle_request():141] handle_request: poll_exit
2023-02-26 17:37:14,622 INFO    SenderThread:168352 [sender.py:transition_state():389] send defer: 6
2023-02-26 17:37:14,622 DEBUG   SenderThread:168352 [sender.py:send_request():246] send_request: poll_exit
2023-02-26 17:37:14,622 DEBUG   HandlerThread:168352 [handler.py:handle_request():141] handle_request: defer
2023-02-26 17:37:14,622 INFO    HandlerThread:168352 [handler.py:handle_request_defer():164] handle defer: 6
2023-02-26 17:37:14,622 DEBUG   SenderThread:168352 [sender.py:send_request():246] send_request: defer
2023-02-26 17:37:14,623 INFO    SenderThread:168352 [sender.py:send_request_defer():385] handle sender defer: 6
2023-02-26 17:37:14,623 INFO    SenderThread:168352 [dir_watcher.py:finish():279] shutting down directory watcher
2023-02-26 17:37:14,640 INFO    Thread-7  :168352 [dir_watcher.py:_on_file_modified():226] file/dir modified: /projects/akhot2/group-01-phys371-sp2023/yolov5_model/wandb/run-20230226_172550-2fvf94yn/files/output.log
2023-02-26 17:37:14,643 INFO    SenderThread:168352 [dir_watcher.py:_on_file_modified():226] file/dir modified: /projects/akhot2/group-01-phys371-sp2023/yolov5_model/wandb/run-20230226_172550-2fvf94yn/files/config.yaml
2023-02-26 17:37:14,643 INFO    SenderThread:168352 [dir_watcher.py:_on_file_modified():226] file/dir modified: /projects/akhot2/group-01-phys371-sp2023/yolov5_model/wandb/run-20230226_172550-2fvf94yn/files/wandb-summary.json
2023-02-26 17:37:14,643 INFO    SenderThread:168352 [dir_watcher.py:finish():309] scan: /projects/akhot2/group-01-phys371-sp2023/yolov5_model/wandb/run-20230226_172550-2fvf94yn/files
2023-02-26 17:37:14,644 INFO    SenderThread:168352 [dir_watcher.py:finish():323] scan save: /projects/akhot2/group-01-phys371-sp2023/yolov5_model/wandb/run-20230226_172550-2fvf94yn/files/requirements.txt requirements.txt
2023-02-26 17:37:14,644 INFO    SenderThread:168352 [dir_watcher.py:finish():323] scan save: /projects/akhot2/group-01-phys371-sp2023/yolov5_model/wandb/run-20230226_172550-2fvf94yn/files/output.log output.log
2023-02-26 17:37:14,645 INFO    SenderThread:168352 [dir_watcher.py:finish():323] scan save: /projects/akhot2/group-01-phys371-sp2023/yolov5_model/wandb/run-20230226_172550-2fvf94yn/files/conda-environment.yaml conda-environment.yaml
2023-02-26 17:37:14,650 INFO    SenderThread:168352 [dir_watcher.py:finish():323] scan save: /projects/akhot2/group-01-phys371-sp2023/yolov5_model/wandb/run-20230226_172550-2fvf94yn/files/config.yaml config.yaml
2023-02-26 17:37:14,652 INFO    SenderThread:168352 [dir_watcher.py:finish():323] scan save: /projects/akhot2/group-01-phys371-sp2023/yolov5_model/wandb/run-20230226_172550-2fvf94yn/files/wandb-metadata.json wandb-metadata.json
2023-02-26 17:37:14,653 INFO    SenderThread:168352 [dir_watcher.py:finish():323] scan save: /projects/akhot2/group-01-phys371-sp2023/yolov5_model/wandb/run-20230226_172550-2fvf94yn/files/wandb-summary.json wandb-summary.json
2023-02-26 17:37:14,658 INFO    SenderThread:168352 [dir_watcher.py:finish():323] scan save: /projects/akhot2/group-01-phys371-sp2023/yolov5_model/wandb/run-20230226_172550-2fvf94yn/files/media/images/Labels_0_6a883c7ef52a3db02046.jpg media/images/Labels_0_6a883c7ef52a3db02046.jpg
2023-02-26 17:37:14,658 INFO    SenderThread:168352 [dir_watcher.py:finish():323] scan save: /projects/akhot2/group-01-phys371-sp2023/yolov5_model/wandb/run-20230226_172550-2fvf94yn/files/media/images/Mosaics_0_2159ec3ded661ae299a1.jpg media/images/Mosaics_0_2159ec3ded661ae299a1.jpg
2023-02-26 17:37:14,659 INFO    SenderThread:168352 [dir_watcher.py:finish():323] scan save: /projects/akhot2/group-01-phys371-sp2023/yolov5_model/wandb/run-20230226_172550-2fvf94yn/files/media/images/Mosaics_0_151826f941a635cc8383.jpg media/images/Mosaics_0_151826f941a635cc8383.jpg
2023-02-26 17:37:14,659 INFO    SenderThread:168352 [dir_watcher.py:finish():323] scan save: /projects/akhot2/group-01-phys371-sp2023/yolov5_model/wandb/run-20230226_172550-2fvf94yn/files/media/images/Labels_0_f68d571fdee6784f3d89.jpg media/images/Labels_0_f68d571fdee6784f3d89.jpg
2023-02-26 17:37:14,659 INFO    SenderThread:168352 [dir_watcher.py:finish():323] scan save: /projects/akhot2/group-01-phys371-sp2023/yolov5_model/wandb/run-20230226_172550-2fvf94yn/files/media/images/Mosaics_0_f2da49c657c1724f1c74.jpg media/images/Mosaics_0_f2da49c657c1724f1c74.jpg
2023-02-26 17:37:14,660 INFO    SenderThread:168352 [sender.py:transition_state():389] send defer: 7
2023-02-26 17:37:14,660 DEBUG   HandlerThread:168352 [handler.py:handle_request():141] handle_request: defer
2023-02-26 17:37:14,660 INFO    HandlerThread:168352 [handler.py:handle_request_defer():164] handle defer: 7
2023-02-26 17:37:14,660 DEBUG   SenderThread:168352 [sender.py:send_request():246] send_request: defer
2023-02-26 17:37:14,660 INFO    SenderThread:168352 [sender.py:send_request_defer():385] handle sender defer: 7
2023-02-26 17:37:14,660 INFO    SenderThread:168352 [file_pusher.py:finish():145] shutting down file pusher
2023-02-26 17:37:14,732 DEBUG   HandlerThread:168352 [handler.py:handle_request():141] handle_request: poll_exit
2023-02-26 17:37:14,733 DEBUG   SenderThread:168352 [sender.py:send_request():246] send_request: poll_exit
2023-02-26 17:37:14,835 DEBUG   HandlerThread:168352 [handler.py:handle_request():141] handle_request: poll_exit
2023-02-26 17:37:14,835 DEBUG   SenderThread:168352 [sender.py:send_request():246] send_request: poll_exit
2023-02-26 17:37:15,183 DEBUG   HandlerThread:168352 [handler.py:handle_request():141] handle_request: poll_exit
2023-02-26 17:37:15,217 DEBUG   SenderThread:168352 [sender.py:send_request():246] send_request: poll_exit
2023-02-26 17:37:15,218 INFO    Thread-18 :168352 [upload_job.py:push():137] Uploaded file /projects/akhot2/group-01-phys371-sp2023/yolov5_model/wandb/run-20230226_172550-2fvf94yn/files/output.log
2023-02-26 17:37:15,218 INFO    Thread-21 :168352 [upload_job.py:push():137] Uploaded file /projects/akhot2/group-01-phys371-sp2023/yolov5_model/wandb/run-20230226_172550-2fvf94yn/files/wandb-summary.json
2023-02-26 17:37:15,259 INFO    Thread-17 :168352 [upload_job.py:push():137] Uploaded file /projects/akhot2/group-01-phys371-sp2023/yolov5_model/wandb/run-20230226_172550-2fvf94yn/files/requirements.txt
2023-02-26 17:37:15,290 INFO    Thread-19 :168352 [upload_job.py:push():137] Uploaded file /projects/akhot2/group-01-phys371-sp2023/yolov5_model/wandb/run-20230226_172550-2fvf94yn/files/conda-environment.yaml
2023-02-26 17:37:15,293 INFO    Thread-20 :168352 [upload_job.py:push():137] Uploaded file /projects/akhot2/group-01-phys371-sp2023/yolov5_model/wandb/run-20230226_172550-2fvf94yn/files/config.yaml
2023-02-26 17:37:15,428 DEBUG   HandlerThread:168352 [handler.py:handle_request():141] handle_request: poll_exit
2023-02-26 17:37:15,429 DEBUG   SenderThread:168352 [sender.py:send_request():246] send_request: poll_exit
2023-02-26 17:37:15,494 INFO    Thread-6  :168352 [sender.py:transition_state():389] send defer: 8
2023-02-26 17:37:15,494 DEBUG   HandlerThread:168352 [handler.py:handle_request():141] handle_request: defer
2023-02-26 17:37:15,494 INFO    HandlerThread:168352 [handler.py:handle_request_defer():164] handle defer: 8
2023-02-26 17:37:15,494 DEBUG   SenderThread:168352 [sender.py:send_request():246] send_request: defer
2023-02-26 17:37:15,494 INFO    SenderThread:168352 [sender.py:send_request_defer():385] handle sender defer: 8
2023-02-26 17:37:15,531 DEBUG   HandlerThread:168352 [handler.py:handle_request():141] handle_request: poll_exit
2023-02-26 17:37:15,996 INFO    SenderThread:168352 [sender.py:transition_state():389] send defer: 9
2023-02-26 17:37:15,996 DEBUG   SenderThread:168352 [sender.py:send_request():246] send_request: poll_exit
2023-02-26 17:37:15,997 DEBUG   HandlerThread:168352 [handler.py:handle_request():141] handle_request: defer
2023-02-26 17:37:15,997 INFO    HandlerThread:168352 [handler.py:handle_request_defer():164] handle defer: 9
2023-02-26 17:37:15,997 DEBUG   SenderThread:168352 [sender.py:send_request():246] send_request: defer
2023-02-26 17:37:15,997 INFO    SenderThread:168352 [sender.py:send_request_defer():385] handle sender defer: 9
2023-02-26 17:37:15,997 INFO    SenderThread:168352 [sender.py:transition_state():389] send defer: 10
2023-02-26 17:37:15,998 DEBUG   SenderThread:168352 [sender.py:send():232] send: final
2023-02-26 17:37:16,154 DEBUG   SenderThread:168352 [sender.py:send():232] send: footer
2023-02-26 17:37:16,155 DEBUG   HandlerThread:168352 [handler.py:handle_request():141] handle_request: defer
2023-02-26 17:37:16,155 INFO    HandlerThread:168352 [handler.py:handle_request_defer():164] handle defer: 10
2023-02-26 17:37:16,155 DEBUG   SenderThread:168352 [sender.py:send_request():246] send_request: defer
2023-02-26 17:37:16,155 DEBUG   HandlerThread:168352 [handler.py:handle_request():141] handle_request: poll_exit
2023-02-26 17:37:16,155 INFO    SenderThread:168352 [sender.py:send_request_defer():385] handle sender defer: 10
2023-02-26 17:37:16,156 DEBUG   SenderThread:168352 [sender.py:send_request():246] send_request: poll_exit
2023-02-26 17:37:16,156 INFO    SenderThread:168352 [file_pusher.py:join():150] waiting for file pusher
2023-02-26 17:37:16,412 DEBUG   HandlerThread:168352 [handler.py:handle_request():141] handle_request: sampled_history
2023-02-26 17:37:16,420 DEBUG   HandlerThread:168352 [handler.py:handle_request():141] handle_request: get_summary
2023-02-26 17:37:16,420 DEBUG   HandlerThread:168352 [handler.py:handle_request():141] handle_request: shutdown
2023-02-26 17:37:16,420 INFO    HandlerThread:168352 [handler.py:finish():806] shutting down handler
2023-02-26 17:37:17,155 INFO    WriterThread:168352 [datastore.py:close():279] close: /projects/akhot2/group-01-phys371-sp2023/yolov5_model/wandb/run-20230226_172550-2fvf94yn/run-2fvf94yn.wandb
2023-02-26 17:37:17,277 INFO    SenderThread:168352 [sender.py:finish():1106] shutting down sender
2023-02-26 17:37:17,277 INFO    SenderThread:168352 [file_pusher.py:finish():145] shutting down file pusher
2023-02-26 17:37:17,278 INFO    SenderThread:168352 [file_pusher.py:join():150] waiting for file pusher
2023-02-26 17:37:17,316 INFO    MainThread:168352 [internal.py:handle_exit():80] Internal process exited
